M48
; DRILL file {KiCad 5.1.6-c6e7f7d~86~ubuntu20.04.1} date Sun Jun 21 10:08:06 2020
; FORMAT={-:-/ absolute / inch / decimal}
; #@! TF.CreationDate,2020-06-21T10:08:06-04:00
; #@! TF.GenerationSoftware,Kicad,Pcbnew,5.1.6-c6e7f7d~86~ubuntu20.04.1
; #@! TF.FileFunction,NonPlated,1,2,NPTH
FMAT,2
INCH
T1C0.0669
T2C0.1201
T3C0.1378
T4C0.1575
%
G90
G05
T1
X4.35Y-4.8
X4.75Y-4.8
X5.85Y-2.55
X6.25Y-2.55
X4.35Y-2.175
X4.75Y-2.175
X6.6Y-4.05
X7.0Y-4.05
X5.1Y-2.55
X5.5Y-2.55
X5.85Y-4.05
X6.25Y-4.05
X5.1Y-4.8
X5.5Y-4.8
X4.35Y-3.675
X4.75Y-3.675
X5.1Y-1.8
X5.5Y-1.8
X5.85Y-3.3
X6.25Y-3.3
X6.225Y-4.8
X6.625Y-4.8
X5.85Y-1.8
X6.25Y-1.8
X6.6Y-1.8
X7.0Y-1.8
X6.6Y-3.3
X7.0Y-3.3
X5.1Y-3.3
X5.5Y-3.3
X5.1Y-4.05
X5.5Y-4.05
X6.6Y-2.55
X7.0Y-2.55
T2
X4.8256Y-1.7065
X4.8256Y-2.6435
X4.8256Y-3.2065
X4.8256Y-4.1435
X5.9565Y-4.5244
X6.8935Y-4.5244
T3
X7.275Y-5.1
X4.075Y-1.525
X4.075Y-5.1
X7.275Y-1.525
T4
X5.3Y-4.05
X6.8Y-2.55
X4.55Y-4.8
X6.05Y-2.55
X4.2256Y-1.7065
X4.2256Y-2.6435
X4.55Y-2.175
X6.8Y-4.05
X5.3Y-2.55
X6.05Y-4.05
X5.3Y-4.8
X4.2256Y-3.2065
X4.2256Y-4.1435
X4.55Y-3.675
X5.3Y-1.8
X6.05Y-3.3
X5.9565Y-5.1244
X6.425Y-4.8
X6.8935Y-5.1244
X6.05Y-1.8
X6.8Y-1.8
X6.8Y-3.3
X5.3Y-3.3
T0
M30
