(module TestPoint_SurfaceMount_1206_HS (layer F.Cu) (tedit 5EEC1E21)
  (fp_text reference REF** (at 0.3 -2.3) (layer F.SilkS)
    (effects (font (size 1 1) (thickness 0.15)))
  )
  (fp_text value TestPoint_SurfaceMount_1206_HS (at 0.6 2.5) (layer F.Fab)
    (effects (font (size 1 1) (thickness 0.15)))
  )
  (fp_line (start 2 1.2) (end 2 -1.2) (layer F.SilkS) (width 0.12))
  (fp_line (start -2 1.2) (end 2 1.2) (layer F.SilkS) (width 0.12))
  (fp_line (start -2 -1.2) (end -2 1.2) (layer F.SilkS) (width 0.12))
  (fp_line (start -2 -1.2) (end 2 -1.2) (layer F.SilkS) (width 0.12))
  (pad 1 smd rect (at 0 0) (size 3.5 1.9) (layers F.Cu F.Paste F.Mask))
)
