<?xml version="1.0" encoding="UTF-8" standalone="no"?>
<!-- Generated by SVGo -->

<svg
   xmlns:dc="http://purl.org/dc/elements/1.1/"
   xmlns:cc="http://creativecommons.org/ns#"
   xmlns:rdf="http://www.w3.org/1999/02/22-rdf-syntax-ns#"
   xmlns:svg="http://www.w3.org/2000/svg"
   xmlns="http://www.w3.org/2000/svg"
   xmlns:sodipodi="http://sodipodi.sourceforge.net/DTD/sodipodi-0.dtd"
   xmlns:inkscape="http://www.inkscape.org/namespaces/inkscape"
   width="120.202mm"
   height="130.251mm"
   viewBox="0.000 0.000 120.202 130.251"
   version="1.1"
   id="svg9879"
   sodipodi:docname="open-layer_v1.svg"
   inkscape:version="0.92.5 (2060ec1f9f, 2020-04-08)">
  <metadata
     id="metadata9885">
    <rdf:RDF>
      <cc:Work
         rdf:about="">
        <dc:format>image/svg+xml</dc:format>
        <dc:type
           rdf:resource="http://purl.org/dc/dcmitype/StillImage" />
      </cc:Work>
    </rdf:RDF>
  </metadata>
  <defs
     id="defs9883" />
  <sodipodi:namedview
     pagecolor="#ffffff"
     bordercolor="#666666"
     borderopacity="1"
     objecttolerance="10"
     gridtolerance="10"
     guidetolerance="10"
     inkscape:pageopacity="0"
     inkscape:pageshadow="2"
     inkscape:window-width="2506"
     inkscape:window-height="1376"
     id="namedview9881"
     showgrid="false"
     inkscape:zoom="1.9175795"
     inkscape:cx="350.34396"
     inkscape:cy="171.26825"
     inkscape:window-x="1974"
     inkscape:window-y="27"
     inkscape:window-maximized="1"
     inkscape:current-layer="svg9879" />
  <polygon
     points="52.600,15.000 15.001,15.000 15.001,115.251 105.202,115.251 105.202,15.000 67.601,15.000 67.601,5.000 111.702,5.000 111.976,5.011 112.249,5.044 112.519,5.097 112.783,5.172 113.041,5.267 113.290,5.382 113.530,5.516 113.759,5.669 113.975,5.839 114.176,6.026 114.363,6.227 114.533,6.443 114.686,6.672 114.820,6.912 114.935,7.161 115.030,7.419 115.105,7.683 115.158,7.953 115.191,8.226 115.202,8.500 115.202,121.751 115.191,122.026 115.158,122.299 115.105,122.569 115.030,122.833 114.935,123.091 114.820,123.340 114.686,123.580 114.533,123.809 114.363,124.025 114.176,124.226 113.975,124.413 113.759,124.583 113.530,124.736 113.290,124.870 113.041,124.985 112.783,125.080 112.519,125.155 112.249,125.208 111.976,125.241 111.702,125.251 8.501,125.251 8.226,125.241 7.953,125.208 7.683,125.155 7.419,125.080 7.161,124.985 6.912,124.870 6.672,124.736 6.443,124.583 6.227,124.413 6.026,124.226 5.839,124.025 5.669,123.809 5.516,123.580 5.382,123.340 5.267,123.091 5.172,122.833 5.097,122.569 5.044,122.299 5.011,122.026 5.000,121.751 5.001,8.500 5.011,8.226 5.044,7.953 5.097,7.683 5.172,7.419 5.267,7.161 5.382,6.912 5.516,6.672 5.669,6.443 5.839,6.227 6.026,6.026 6.227,5.839 6.443,5.669 6.672,5.516 6.912,5.382 7.161,5.267 7.419,5.172 7.683,5.097 7.953,5.044 8.226,5.011 8.501,5.000 52.600,5.000"
     style="fill:none;stroke-width:0.050000mm;stroke:black"
     id="polygon9863" />
  <polygon
     points="8.972,118.836 8.585,119.223 8.336,119.711 8.251,120.251 8.336,120.792 8.585,121.28 8.972,121.667 9.46,121.916 10.001,122.001 10.541,121.916 11.029,121.667 11.416,121.28 11.665,120.792 11.751,120.251 11.665,119.711 11.416,119.223 11.029,118.836 10.541,118.587 10.001,118.501 9.46,118.587 "
     style="fill:none;stroke:#000000;stroke-width:0.05mm"
     id="polygon9865"
     transform="matrix(0.952,0,0,0.952,0.48004866,5.7720473)" />
  <polygon
     points="59.072,118.836 58.685,119.223 58.437,119.711 58.351,120.251 58.437,120.792 58.685,121.28 59.072,121.667 59.56,121.916 60.101,122.001 60.642,121.916 61.13,121.667 61.517,121.28 61.765,120.792 61.851,120.251 61.765,119.711 61.517,119.223 61.13,118.836 60.642,118.587 60.101,118.501 59.56,118.587 "
     style="fill:none;stroke:#000000;stroke-width:0.05mm"
     id="polygon9867"
     transform="matrix(0.952,0,0,0.952,2.884848,5.7720473)" />
  <polygon
     points="109.173,118.836 108.786,119.223 108.537,119.711 108.452,120.251 108.537,120.792 108.786,121.28 109.173,121.667 109.661,121.916 110.202,122.001 110.742,121.916 111.23,121.667 111.617,121.28 111.866,120.792 111.952,120.251 111.866,119.711 111.617,119.223 111.23,118.836 110.742,118.587 110.202,118.501 109.661,118.587 "
     style="fill:none;stroke:#000000;stroke-width:0.05mm"
     id="polygon9869"
     transform="matrix(0.952,0,0,0.952,5.2896967,5.7720473)" />
  <polygon
     points="8.972,63.71 8.585,64.097 8.336,64.585 8.251,65.126 8.336,65.667 8.585,66.155 8.972,66.542 9.46,66.79 10.001,66.876 10.541,66.79 11.029,66.542 11.416,66.155 11.665,65.667 11.751,65.126 11.665,64.585 11.416,64.097 11.029,63.71 10.541,63.462 10.001,63.376 9.46,63.462 "
     style="fill:none;stroke:#000000;stroke-width:0.05mm"
     id="polygon9871"
     transform="matrix(0.952,0,0,0.952,0.48004865,3.126048)" />
  <polygon
     points="109.173,63.71 108.786,64.097 108.537,64.585 108.452,65.126 108.537,65.667 108.786,66.155 109.173,66.542 109.661,66.79 110.202,66.876 110.742,66.79 111.23,66.542 111.617,66.155 111.866,65.667 111.952,65.126 111.866,64.585 111.617,64.097 111.23,63.71 110.742,63.462 110.202,63.376 109.661,63.462 "
     style="fill:none;stroke:#000000;stroke-width:0.05mm"
     id="polygon9873"
     transform="matrix(0.952,0,0,0.952,5.2896967,3.126048)" />
  <polygon
     points="109.173,8.585 108.786,8.972 108.537,9.46 108.452,10.001 108.537,10.541 108.786,11.029 109.173,11.416 109.661,11.665 110.202,11.751 110.742,11.665 111.23,11.416 111.617,11.029 111.866,10.541 111.952,10.001 111.866,9.46 111.617,8.972 111.23,8.585 110.742,8.336 110.202,8.251 109.661,8.336 "
     style="fill:none;stroke:#000000;stroke-width:0.05mm"
     id="polygon9875"
     transform="matrix(0.952,0,0,0.952,5.2896967,0.48004866)" />
  <polygon
     points="8.972,8.585 8.585,8.972 8.336,9.46 8.251,10 8.336,10.541 8.585,11.029 8.972,11.416 9.46,11.665 10.001,11.75 10.541,11.665 11.029,11.416 11.416,11.029 11.665,10.541 11.751,10 11.665,9.46 11.416,8.972 11.029,8.585 10.541,8.336 10.001,8.25 9.46,8.336 "
     style="fill:none;stroke:#000000;stroke-width:0.05mm"
     id="polygon9877"
     transform="matrix(0.952,0,0,0.952,0.48004866,0.47999934)" />
</svg>
