EESchema Schematic File Version 4
EELAYER 30 0
EELAYER END
$Descr A4 11693 8268
encoding utf-8
Sheet 1 2
Title "QAZ Main"
Date "2020-01-25"
Rev "v0.2"
Comp "Anthony Needles"
Comment1 ""
Comment2 ""
Comment3 ""
Comment4 ""
$EndDescr
$Comp
L Device:Crystal Y1
U 1 1 5E2D72FB
P 2450 2500
F 0 "Y1" V 2450 2250 50  0000 L CNN
F 1 "8.0000MHz" V 2450 2650 50  0000 L CNN
F 2 "QAZ_pcb_lib:Crystal_SMD_Abracon_ABM7-2Pin_6.0x3.5mm_HS" H 2450 2500 50  0001 C CNN
F 3 "~" H 2450 2500 50  0001 C CNN
	1    2450 2500
	0    1    1    0   
$EndComp
$Comp
L Device:C C7
U 1 1 5E2D7571
P 2150 2650
F 0 "C7" V 2300 2650 50  0000 C CNN
F 1 "16pF" V 2400 2650 50  0000 C CNN
F 2 "Capacitor_SMD:C_0603_1608Metric_Pad1.05x0.95mm_HandSolder" H 2188 2500 50  0001 C CNN
F 3 "~" H 2150 2650 50  0001 C CNN
	1    2150 2650
	0    1    1    0   
$EndComp
$Comp
L Device:C C6
U 1 1 5E2D7619
P 2150 2350
F 0 "C6" V 1898 2350 50  0000 C CNN
F 1 "16pF" V 1989 2350 50  0000 C CNN
F 2 "Capacitor_SMD:C_0603_1608Metric_Pad1.05x0.95mm_HandSolder" H 2188 2200 50  0001 C CNN
F 3 "~" H 2150 2350 50  0001 C CNN
	1    2150 2350
	0    1    1    0   
$EndComp
Wire Wire Line
	2300 2350 2450 2350
Wire Wire Line
	2450 2650 2300 2650
$Comp
L power:GND #PWR07
U 1 1 5E2DA4FD
P 1850 2650
F 0 "#PWR07" H 1850 2400 50  0001 C CNN
F 1 "GND" V 1855 2522 50  0001 R CNN
F 2 "" H 1850 2650 50  0001 C CNN
F 3 "" H 1850 2650 50  0001 C CNN
	1    1850 2650
	0    1    1    0   
$EndComp
$Comp
L power:GND #PWR06
U 1 1 5E2DA51B
P 1850 2350
F 0 "#PWR06" H 1850 2100 50  0001 C CNN
F 1 "GND" V 1855 2222 50  0001 R CNN
F 2 "" H 1850 2350 50  0001 C CNN
F 3 "" H 1850 2350 50  0001 C CNN
	1    1850 2350
	0    1    1    0   
$EndComp
Wire Wire Line
	2000 2350 1850 2350
Wire Wire Line
	1850 2650 2000 2650
$Comp
L Device:C C2
U 1 1 5E2DA5D9
P 1500 1300
F 0 "C2" H 1385 1254 50  0000 R CNN
F 1 "100nF" H 1385 1345 50  0000 R CNN
F 2 "Capacitor_SMD:C_0603_1608Metric_Pad1.05x0.95mm_HandSolder" H 1538 1150 50  0001 C CNN
F 3 "~" H 1500 1300 50  0001 C CNN
	1    1500 1300
	-1   0    0    1   
$EndComp
$Comp
L QAZ:SolderBridge SB4
U 1 1 5E2DA7A3
P 2600 2350
F 0 "SB4" H 2700 2450 50  0000 C CNN
F 1 "SolderBridge" H 2660 2300 50  0001 C CNN
F 2 "Resistor_SMD:R_0603_1608Metric_Pad1.05x0.95mm_HandSolder" H 2600 2450 50  0001 C CNN
F 3 "" H 2600 2450 50  0001 C CNN
	1    2600 2350
	1    0    0    -1  
$EndComp
$Comp
L QAZ:SolderBridge SB5
U 1 1 5E2DA80D
P 2600 2650
F 0 "SB5" H 2700 2600 50  0000 C CNN
F 1 "SolderBridge" H 2660 2600 50  0001 C CNN
F 2 "Resistor_SMD:R_0603_1608Metric_Pad1.05x0.95mm_HandSolder" H 2600 2750 50  0001 C CNN
F 3 "" H 2600 2750 50  0001 C CNN
	1    2600 2650
	1    0    0    -1  
$EndComp
Wire Wire Line
	2450 2350 2600 2350
Connection ~ 2450 2350
Wire Wire Line
	2600 2650 2450 2650
Connection ~ 2450 2650
$Comp
L Device:C C5
U 1 1 5E2DAC7A
P 2000 1300
F 0 "C5" H 1885 1254 50  0000 R CNN
F 1 "100nF" H 1885 1345 50  0000 R CNN
F 2 "Capacitor_SMD:C_0603_1608Metric_Pad1.05x0.95mm_HandSolder" H 2038 1150 50  0001 C CNN
F 3 "~" H 2000 1300 50  0001 C CNN
	1    2000 1300
	-1   0    0    1   
$EndComp
$Comp
L Device:C C8
U 1 1 5E2DACAE
P 2450 1300
F 0 "C8" H 2335 1254 50  0000 R CNN
F 1 "100nF" H 2335 1345 50  0000 R CNN
F 2 "Capacitor_SMD:C_0603_1608Metric_Pad1.05x0.95mm_HandSolder" H 2488 1150 50  0001 C CNN
F 3 "~" H 2450 1300 50  0001 C CNN
	1    2450 1300
	-1   0    0    1   
$EndComp
Wire Wire Line
	1500 1150 2000 1150
Connection ~ 2000 1150
Wire Wire Line
	1500 1450 2000 1450
Connection ~ 2000 1450
$Comp
L power:GND #PWR04
U 1 1 5E2DB42F
P 1500 1450
F 0 "#PWR04" H 1500 1200 50  0001 C CNN
F 1 "GND" H 1505 1277 50  0001 C CNN
F 2 "" H 1500 1450 50  0001 C CNN
F 3 "" H 1500 1450 50  0001 C CNN
	1    1500 1450
	1    0    0    -1  
$EndComp
Connection ~ 1500 1450
$Comp
L power:+3.3V #PWR03
U 1 1 5E2DB7FD
P 1500 1150
F 0 "#PWR03" H 1500 1000 50  0001 C CNN
F 1 "+3.3V" H 1515 1323 50  0000 C CNN
F 2 "" H 1500 1150 50  0001 C CNN
F 3 "" H 1500 1150 50  0001 C CNN
	1    1500 1150
	1    0    0    -1  
$EndComp
Connection ~ 1500 1150
$Comp
L Switch:SW_Push SW1
U 1 1 5E2DC9F1
P 1450 3700
F 0 "SW1" H 1450 3985 50  0000 C CNN
F 1 "EVQPE1" H 1450 3894 50  0000 C CNN
F 2 "QAZ_pcb_lib:SW_SPST_EVQPE1_HS" H 1450 3900 50  0001 C CNN
F 3 "" H 1450 3900 50  0001 C CNN
	1    1450 3700
	1    0    0    -1  
$EndComp
$Comp
L Device:C C1
U 1 1 5E2DCB8C
P 1450 3950
F 0 "C1" V 1300 3950 50  0000 C CNN
F 1 "100nF" V 1200 3950 50  0000 C CNN
F 2 "Capacitor_SMD:C_0603_1608Metric_Pad1.05x0.95mm_HandSolder" H 1488 3800 50  0001 C CNN
F 3 "~" H 1450 3950 50  0001 C CNN
	1    1450 3950
	0    -1   -1   0   
$EndComp
Wire Wire Line
	1250 3700 1250 3950
Wire Wire Line
	1250 3950 1300 3950
Wire Wire Line
	1600 3950 1650 3950
Wire Wire Line
	1650 3950 1650 3700
$Comp
L power:GND #PWR01
U 1 1 5E2DD449
P 1250 3950
F 0 "#PWR01" H 1250 3700 50  0001 C CNN
F 1 "GND" V 1255 3822 50  0001 R CNN
F 2 "" H 1250 3950 50  0001 C CNN
F 3 "" H 1250 3950 50  0001 C CNN
	1    1250 3950
	1    0    0    -1  
$EndComp
Connection ~ 1250 3950
$Comp
L Device:R_Small_US R5
U 1 1 5E2DED31
P 3350 3700
F 0 "R5" H 3500 3650 50  0000 R CNN
F 1 "10k" H 3550 3750 50  0000 R CNN
F 2 "Resistor_SMD:R_0603_1608Metric_Pad1.05x0.95mm_HandSolder" H 3350 3700 50  0001 C CNN
F 3 "~" H 3350 3700 50  0001 C CNN
F 4 "DNP" H 3300 3700 50  0000 R CNN "Comment"
	1    3350 3700
	-1   0    0    1   
$EndComp
$Comp
L Device:R_Small_US R6
U 1 1 5E2DEDBB
P 3350 4000
F 0 "R6" H 3500 3950 50  0000 R CNN
F 1 "10k" H 3550 4050 50  0000 R CNN
F 2 "Resistor_SMD:R_0603_1608Metric_Pad1.05x0.95mm_HandSolder" H 3350 4000 50  0001 C CNN
F 3 "~" H 3350 4000 50  0001 C CNN
	1    3350 4000
	-1   0    0    1   
$EndComp
$Comp
L power:GND #PWR017
U 1 1 5E2DF23D
P 3350 4100
F 0 "#PWR017" H 3350 3850 50  0001 C CNN
F 1 "GND" H 3355 3927 50  0001 C CNN
F 2 "" H 3350 4100 50  0001 C CNN
F 3 "" H 3350 4100 50  0001 C CNN
	1    3350 4100
	1    0    0    -1  
$EndComp
$Comp
L power:+3.3V #PWR016
U 1 1 5E2DF2F4
P 3350 3600
F 0 "#PWR016" H 3350 3450 50  0001 C CNN
F 1 "+3.3V" H 3350 3750 50  0000 C CNN
F 2 "" H 3350 3600 50  0001 C CNN
F 3 "" H 3350 3600 50  0001 C CNN
	1    3350 3600
	1    0    0    -1  
$EndComp
Wire Wire Line
	3350 3850 3350 3900
Wire Wire Line
	3350 3850 3350 3800
Connection ~ 3350 3850
$Comp
L Regulator_Linear:AP2112K-3.3 U1
U 1 1 5E2E3AE6
P 2950 6650
F 0 "U1" H 2950 6992 50  0000 C CNN
F 1 "AP2112K-3.3" H 2950 6900 50  0000 C CNN
F 2 "Package_TO_SOT_SMD:SOT-23-5_HandSoldering" H 2950 6975 50  0001 C CNN
F 3 "https://www.diodes.com/assets/Datasheets/AP2112.pdf" H 2950 6750 50  0001 C CNN
	1    2950 6650
	1    0    0    -1  
$EndComp
$Comp
L power:GND #PWR014
U 1 1 5E2E44CE
P 2950 6950
F 0 "#PWR014" H 2950 6700 50  0001 C CNN
F 1 "GND" H 2955 6777 50  0001 C CNN
F 2 "" H 2950 6950 50  0001 C CNN
F 3 "" H 2950 6950 50  0001 C CNN
	1    2950 6950
	1    0    0    -1  
$EndComp
$Comp
L QAZ:SolderBridge SB3
U 1 1 5E2E470F
P 2200 6650
F 0 "SB3" H 2300 6600 50  0000 C CNN
F 1 "SolderBridge" H 2260 6600 50  0001 C CNN
F 2 "Resistor_SMD:R_0603_1608Metric_Pad1.05x0.95mm_HandSolder" H 2200 6750 50  0001 C CNN
F 3 "" H 2200 6750 50  0001 C CNN
	1    2200 6650
	1    0    0    -1  
$EndComp
$Comp
L QAZ:TestPoint TP2
U 1 1 5E2E5B26
P 2050 6550
F 0 "TP2" H 2000 6700 50  0000 L CNN
F 1 "TestPoint" H 2050 6400 50  0001 C CNN
F 2 "QAZ_pcb_lib:TestPoint_SurfaceMount_0805_HS" H 2050 6550 50  0001 C CNN
F 3 "" H 2050 6550 50  0001 C CNN
	1    2050 6550
	1    0    0    -1  
$EndComp
$Comp
L power:+5V #PWR02
U 1 1 5E2E60AF
P 1400 6550
F 0 "#PWR02" H 1400 6400 50  0001 C CNN
F 1 "+5V" H 1415 6723 50  0000 C CNN
F 2 "" H 1400 6550 50  0001 C CNN
F 3 "" H 1400 6550 50  0001 C CNN
	1    1400 6550
	1    0    0    -1  
$EndComp
$Comp
L power:+3.3V #PWR019
U 1 1 5E2E9413
P 3950 6550
F 0 "#PWR019" H 3950 6400 50  0001 C CNN
F 1 "+3.3V" H 3965 6723 50  0000 C CNN
F 2 "" H 3950 6550 50  0001 C CNN
F 3 "" H 3950 6550 50  0001 C CNN
	1    3950 6550
	1    0    0    -1  
$EndComp
$Comp
L QAZ:TestPoint TP6
U 1 1 5E2E9482
P 3350 6550
F 0 "TP6" H 3300 6700 50  0000 L CNN
F 1 "TestPoint" H 3350 6400 50  0001 C CNN
F 2 "QAZ_pcb_lib:TestPoint_SurfaceMount_0805_HS" H 3350 6550 50  0001 C CNN
F 3 "" H 3350 6550 50  0001 C CNN
	1    3350 6550
	1    0    0    -1  
$EndComp
$Comp
L Device:C C4
U 1 1 5E2EA441
P 1900 6700
F 0 "C4" H 2150 6650 50  0000 R CNN
F 1 "1uF" H 2150 6750 50  0000 R CNN
F 2 "Capacitor_SMD:C_0603_1608Metric_Pad1.05x0.95mm_HandSolder" H 1938 6550 50  0001 C CNN
F 3 "~" H 1900 6700 50  0001 C CNN
	1    1900 6700
	-1   0    0    1   
$EndComp
Wire Wire Line
	2050 6650 2050 6550
Wire Wire Line
	2050 6550 1900 6550
$Comp
L power:GND #PWR08
U 1 1 5E2EEDD8
P 1900 6850
F 0 "#PWR08" H 1900 6600 50  0001 C CNN
F 1 "GND" H 1905 6677 50  0001 C CNN
F 2 "" H 1900 6850 50  0001 C CNN
F 3 "" H 1900 6850 50  0001 C CNN
	1    1900 6850
	1    0    0    -1  
$EndComp
$Comp
L Device:C C11
U 1 1 5E2EEF35
P 3500 6700
F 0 "C11" H 3400 6650 50  0000 R CNN
F 1 "1uF" H 3400 6750 50  0000 R CNN
F 2 "Capacitor_SMD:C_0603_1608Metric_Pad1.05x0.95mm_HandSolder" H 3538 6550 50  0001 C CNN
F 3 "~" H 3500 6700 50  0001 C CNN
	1    3500 6700
	-1   0    0    1   
$EndComp
Wire Wire Line
	3500 6550 3650 6550
Connection ~ 3500 6550
$Comp
L power:GND #PWR018
U 1 1 5E2EFBAC
P 3500 6850
F 0 "#PWR018" H 3500 6600 50  0001 C CNN
F 1 "GND" H 3505 6677 50  0001 C CNN
F 2 "" H 3500 6850 50  0001 C CNN
F 3 "" H 3500 6850 50  0001 C CNN
	1    3500 6850
	1    0    0    -1  
$EndComp
$Comp
L QAZ:SolderBridge SB1
U 1 1 5E2EFD55
P 1800 3700
F 0 "SB1" H 1900 3800 50  0000 C CNN
F 1 "SolderBridge" H 1860 3650 50  0001 C CNN
F 2 "Resistor_SMD:R_0603_1608Metric_Pad1.05x0.95mm_HandSolder" H 1800 3800 50  0001 C CNN
F 3 "" H 1800 3800 50  0001 C CNN
	1    1800 3700
	1    0    0    -1  
$EndComp
Wire Wire Line
	1650 3700 1800 3700
Connection ~ 1650 3700
Wire Wire Line
	2200 6650 2050 6650
$Comp
L QAZ:SolderBridge SB2
U 1 1 5E2F5A6F
P 2200 6550
F 0 "SB2" H 2300 6650 50  0000 C CNN
F 1 "SolderBridge" H 2260 6500 50  0001 C CNN
F 2 "Resistor_SMD:R_0603_1608Metric_Pad1.05x0.95mm_HandSolder" H 2200 6650 50  0001 C CNN
F 3 "" H 2200 6650 50  0001 C CNN
	1    2200 6550
	1    0    0    -1  
$EndComp
Wire Wire Line
	2200 6550 2050 6550
Connection ~ 2050 6550
$Comp
L QAZ:SolderBridge SB6
U 1 1 5E2F6825
P 3650 6550
F 0 "SB6" H 3750 6650 50  0000 C CNN
F 1 "SolderBridge" H 3710 6500 50  0001 C CNN
F 2 "Resistor_SMD:R_0603_1608Metric_Pad1.05x0.95mm_HandSolder" H 3650 6650 50  0001 C CNN
F 3 "" H 3650 6650 50  0001 C CNN
	1    3650 6550
	1    0    0    -1  
$EndComp
Wire Wire Line
	3800 6550 3950 6550
Connection ~ 1900 6550
$Comp
L Device:C C9
U 1 1 5E32AA90
P 2950 1300
F 0 "C9" H 2835 1254 50  0000 R CNN
F 1 "100nF" H 2835 1345 50  0000 R CNN
F 2 "Capacitor_SMD:C_0603_1608Metric_Pad1.05x0.95mm_HandSolder" H 2988 1150 50  0001 C CNN
F 3 "~" H 2950 1300 50  0001 C CNN
	1    2950 1300
	-1   0    0    1   
$EndComp
$Comp
L Device:C C10
U 1 1 5E32AA97
P 3400 1300
F 0 "C10" H 3285 1254 50  0000 R CNN
F 1 "100nF" H 3285 1345 50  0000 R CNN
F 2 "Capacitor_SMD:C_0603_1608Metric_Pad1.05x0.95mm_HandSolder" H 3438 1150 50  0001 C CNN
F 3 "~" H 3400 1300 50  0001 C CNN
	1    3400 1300
	-1   0    0    1   
$EndComp
Wire Wire Line
	3400 1150 2950 1150
Connection ~ 2950 1150
Wire Wire Line
	3400 1450 2950 1450
Connection ~ 2950 1450
Wire Wire Line
	9050 3700 8900 3700
Wire Wire Line
	10000 3700 9550 3700
$Comp
L power:+3.3V #PWR026
U 1 1 5E33E76B
P 8900 3700
F 0 "#PWR026" H 8900 3550 50  0001 C CNN
F 1 "+3.3V" H 8915 3873 50  0000 C CNN
F 2 "" H 8900 3700 50  0001 C CNN
F 3 "" H 8900 3700 50  0001 C CNN
	1    8900 3700
	1    0    0    -1  
$EndComp
$Comp
L power:GND #PWR031
U 1 1 5E33E7BC
P 9700 3900
F 0 "#PWR031" H 9700 3650 50  0001 C CNN
F 1 "GND" H 9705 3727 50  0001 C CNN
F 2 "" H 9700 3900 50  0001 C CNN
F 3 "" H 9700 3900 50  0001 C CNN
	1    9700 3900
	1    0    0    -1  
$EndComp
Text Label 8600 3800 0    50   ~ 0
SWCLK
Wire Wire Line
	9050 2600 8600 2600
Wire Wire Line
	9050 2500 8600 2500
$Comp
L power:+3.3V #PWR029
U 1 1 5E342C3B
P 9700 2500
F 0 "#PWR029" H 9700 2350 50  0001 C CNN
F 1 "+3.3V" H 9715 2673 50  0000 C CNN
F 2 "" H 9700 2500 50  0001 C CNN
F 3 "" H 9700 2500 50  0001 C CNN
	1    9700 2500
	1    0    0    -1  
$EndComp
$Comp
L power:GND #PWR030
U 1 1 5E342C41
P 9700 2600
F 0 "#PWR030" H 9700 2350 50  0001 C CNN
F 1 "GND" H 9705 2427 50  0001 C CNN
F 2 "" H 9700 2600 50  0001 C CNN
F 3 "" H 9700 2600 50  0001 C CNN
	1    9700 2600
	1    0    0    -1  
$EndComp
Text Label 8600 2600 0    50   ~ 0
DBG_TX
Text Label 8600 2500 0    50   ~ 0
DBG_RX
$Comp
L Device:R_Small_US R13
U 1 1 5E39F44D
P 8600 3900
F 0 "R13" H 8750 3850 50  0000 R CNN
F 1 "10k" H 8800 3950 50  0000 R CNN
F 2 "Resistor_SMD:R_0603_1608Metric_Pad1.05x0.95mm_HandSolder" H 8600 3900 50  0001 C CNN
F 3 "~" H 8600 3900 50  0001 C CNN
	1    8600 3900
	-1   0    0    1   
$EndComp
$Comp
L Device:R_Small_US R20
U 1 1 5E39F59F
P 10000 3500
F 0 "R20" H 10150 3450 50  0000 R CNN
F 1 "10k" H 10200 3550 50  0000 R CNN
F 2 "Resistor_SMD:R_0603_1608Metric_Pad1.05x0.95mm_HandSolder" H 10000 3500 50  0001 C CNN
F 3 "~" H 10000 3500 50  0001 C CNN
	1    10000 3500
	-1   0    0    1   
$EndComp
Wire Wire Line
	10000 3600 10000 3700
$Comp
L power:+3.3V #PWR033
U 1 1 5E3A7322
P 10000 3400
F 0 "#PWR033" H 10000 3250 50  0001 C CNN
F 1 "+3.3V" H 9950 3550 50  0000 C CNN
F 2 "" H 10000 3400 50  0001 C CNN
F 3 "" H 10000 3400 50  0001 C CNN
	1    10000 3400
	1    0    0    -1  
$EndComp
$Comp
L power:GND #PWR023
U 1 1 5E3A737B
P 8600 4000
F 0 "#PWR023" H 8600 3750 50  0001 C CNN
F 1 "GND" H 8605 3827 50  0001 C CNN
F 2 "" H 8600 4000 50  0001 C CNN
F 3 "" H 8600 4000 50  0001 C CNN
	1    8600 4000
	1    0    0    -1  
$EndComp
Wire Wire Line
	10000 3800 9550 3800
NoConn ~ 9050 3900
Text Label 10000 3800 2    50   ~ 0
nRESET
Text Label 2400 3700 2    50   ~ 0
nRESET
$Comp
L Connector_Generic:Conn_02x03_Top_Bottom CN3
U 1 1 5E3BAFE9
P 9250 3800
F 0 "CN3" H 9300 4000 50  0000 C CNN
F 1 "2x3 2.54mm" H 9300 3600 50  0000 C CNN
F 2 "Connector_PinHeader_2.54mm:PinHeader_2x03_P2.54mm_Vertical" H 9250 3800 50  0001 C CNN
F 3 "~" H 9250 3800 50  0001 C CNN
	1    9250 3800
	1    0    0    -1  
$EndComp
$Comp
L Connector_Generic:Conn_02x02_Top_Bottom CN2
U 1 1 5E3BB09E
P 9250 2500
F 0 "CN2" H 9300 2600 50  0000 C CNN
F 1 "2x2 2.54mm" H 9300 2300 50  0000 C CNN
F 2 "Connector_PinHeader_2.54mm:PinHeader_2x02_P2.54mm_Vertical" H 9250 2500 50  0001 C CNN
F 3 "~" H 9250 2500 50  0001 C CNN
	1    9250 2500
	1    0    0    -1  
$EndComp
Wire Wire Line
	9550 3900 9700 3900
Wire Wire Line
	9550 2600 9700 2600
Wire Wire Line
	9550 2500 9700 2500
Connection ~ 2450 1450
Connection ~ 2450 1150
Wire Wire Line
	2450 1450 2950 1450
Wire Wire Line
	2450 1450 2000 1450
Wire Wire Line
	2450 1150 2950 1150
Wire Wire Line
	2450 1150 2000 1150
$Comp
L QAZ:TestPoint TP1
U 1 1 5E56A08F
P 2000 1450
F 0 "TP1" H 2050 1600 50  0000 R CNN
F 1 "TestPoint" H 2000 1300 50  0001 C CNN
F 2 "QAZ_pcb_lib:TestPoint_SurfaceMount_0805_HS" H 2000 1450 50  0001 C CNN
F 3 "" H 2000 1450 50  0001 C CNN
	1    2000 1450
	-1   0    0    1   
$EndComp
$Comp
L QAZ:TestPoint TP3
U 1 1 5E56A187
P 2450 1450
F 0 "TP3" H 2500 1600 50  0000 R CNN
F 1 "TestPoint" H 2450 1300 50  0001 C CNN
F 2 "QAZ_pcb_lib:TestPoint_SurfaceMount_0805_HS" H 2450 1450 50  0001 C CNN
F 3 "" H 2450 1450 50  0001 C CNN
	1    2450 1450
	-1   0    0    1   
$EndComp
$Comp
L QAZ:TestPoint TP5
U 1 1 5E56A213
P 2950 1450
F 0 "TP5" H 3000 1600 50  0000 R CNN
F 1 "TestPoint" H 2950 1300 50  0001 C CNN
F 2 "QAZ_pcb_lib:TestPoint_SurfaceMount_0805_HS" H 2950 1450 50  0001 C CNN
F 3 "" H 2950 1450 50  0001 C CNN
	1    2950 1450
	-1   0    0    1   
$EndComp
$Comp
L Device:C C3
U 1 1 5E5D8D7E
P 1550 6700
F 0 "C3" H 1750 6650 50  0000 R CNN
F 1 "4.7uF" H 1850 6750 50  0000 R CNN
F 2 "Capacitor_SMD:C_0805_2012Metric_Pad1.15x1.40mm_HandSolder" H 1588 6550 50  0001 C CNN
F 3 "~" H 1550 6700 50  0001 C CNN
	1    1550 6700
	-1   0    0    1   
$EndComp
$Comp
L power:GND #PWR05
U 1 1 5E5D8D85
P 1550 6850
F 0 "#PWR05" H 1550 6600 50  0001 C CNN
F 1 "GND" H 1555 6677 50  0001 C CNN
F 2 "" H 1550 6850 50  0001 C CNN
F 3 "" H 1550 6850 50  0001 C CNN
	1    1550 6850
	1    0    0    -1  
$EndComp
Wire Wire Line
	1400 6550 1550 6550
Connection ~ 1550 6550
Wire Wire Line
	1550 6550 1900 6550
Wire Notes Line
	1200 6200 4150 6200
Wire Notes Line
	4150 6200 4150 7100
Wire Notes Line
	4150 7100 1200 7100
Wire Notes Line
	1200 7100 1200 6200
Text Notes 1200 6200 0    50   ~ 0
USB 5V to 3.3V
Wire Notes Line
	8350 3150 10100 3150
Text Notes 8350 3150 0    50   ~ 0
SWD Header
Wire Notes Line
	9900 2800 8500 2800
Wire Notes Line
	8500 2800 8500 2250
Wire Notes Line
	8500 2250 9900 2250
Wire Notes Line
	9900 2250 9900 2800
Text Notes 8500 2250 0    50   ~ 0
Serial Debugger Header
Wire Notes Line
	10100 4150 8350 4150
Wire Notes Line
	1350 900  3800 900 
Wire Notes Line
	3800 900  3800 1700
Wire Notes Line
	3800 1700 1350 1700
Wire Notes Line
	1350 1700 1350 900 
Text Notes 1350 900  0    50   ~ 0
MCU Decoupling Capacitors
Wire Notes Line
	1100 3300 1100 4300
Text Notes 1100 3300 0    50   ~ 0
Reset Button
Text Label 3200 2350 2    50   ~ 0
OSC_IN
Text Label 3200 2650 2    50   ~ 0
OSC_OUT
Wire Wire Line
	1950 3700 2400 3700
Wire Notes Line
	2500 3300 2500 4300
Wire Notes Line
	1100 4300 2500 4300
Wire Notes Line
	1100 3300 2500 3300
Wire Wire Line
	2750 2650 3200 2650
Wire Wire Line
	2750 2350 3200 2350
Wire Notes Line
	1650 2000 3300 2000
Wire Notes Line
	3300 2000 3300 3000
Wire Notes Line
	3300 3000 1650 3000
Wire Notes Line
	1650 3000 1650 2000
Text Notes 1650 2000 0    50   ~ 0
8.0000MHz Oscillator
Wire Wire Line
	3350 3850 3800 3850
Text Label 3800 3850 2    50   ~ 0
BOOT0
Wire Notes Line
	3100 3350 3900 3350
Wire Notes Line
	3900 3350 3900 4250
Wire Notes Line
	3900 4250 3100 4250
Wire Notes Line
	3100 4250 3100 3350
Text Notes 3100 3350 0    50   ~ 0
BOOT0 Selection
Wire Wire Line
	2350 6550 2650 6550
Text Label 10000 3700 2    50   ~ 0
SWDIO
Wire Wire Line
	8600 3800 9050 3800
Wire Notes Line
	10100 3150 10100 4150
Wire Notes Line
	8350 3150 8350 4150
Wire Wire Line
	3250 6550 3350 6550
Wire Wire Line
	2350 6650 2500 6650
$Comp
L QAZ:TestPoint TP4
U 1 1 5E49D2B8
P 2500 6650
F 0 "TP4" H 2450 6800 50  0000 L CNN
F 1 "TestPoint" H 2500 6500 50  0001 C CNN
F 2 "QAZ_pcb_lib:TestPoint_SurfaceMount_0805_HS" H 2500 6650 50  0001 C CNN
F 3 "" H 2500 6650 50  0001 C CNN
	1    2500 6650
	-1   0    0    1   
$EndComp
Connection ~ 3350 6550
Wire Wire Line
	3350 6550 3500 6550
$Comp
L QAZ:USB2.0_TYPE_C CN1
U 1 1 5EF16CA9
P 8850 5750
F 0 "CN1" H 9200 6815 50  0000 C CNN
F 1 "USB2.0_TYPE_C" H 9200 6724 50  0000 C CNN
F 2 "QAZ_lib:USB_C_GCT_USB4085" H 9300 6900 50  0001 C CNN
F 3 "" H 8300 6100 50  0001 C CNN
	1    8850 5750
	1    0    0    -1  
$EndComp
$Comp
L power:+5V #PWR024
U 1 1 5E2E39C5
P 8600 4950
F 0 "#PWR024" H 8600 4800 50  0001 C CNN
F 1 "+5V" H 8615 5123 50  0000 C CNN
F 2 "" H 8600 4950 50  0001 C CNN
F 3 "" H 8600 4950 50  0001 C CNN
	1    8600 4950
	1    0    0    -1  
$EndComp
Wire Wire Line
	8700 4950 8600 4950
Wire Wire Line
	9700 4950 9800 4950
$Comp
L power:+5V #PWR032
U 1 1 5EFAA796
P 9800 4950
F 0 "#PWR032" H 9800 4800 50  0001 C CNN
F 1 "+5V" H 9815 5123 50  0000 C CNN
F 2 "" H 9800 4950 50  0001 C CNN
F 3 "" H 9800 4950 50  0001 C CNN
	1    9800 4950
	1    0    0    -1  
$EndComp
Wire Wire Line
	8700 5050 8600 5050
Wire Wire Line
	8600 5050 8600 4950
Connection ~ 8600 4950
Wire Wire Line
	9700 5050 9800 5050
Wire Wire Line
	9800 5050 9800 4950
Connection ~ 9800 4950
Text Label 10150 5250 2    50   ~ 0
USB_D-
Text Label 10150 5150 2    50   ~ 0
USB_D+
Wire Wire Line
	9700 5250 10150 5250
Wire Wire Line
	9700 5150 10150 5150
Text Label 8250 5250 0    50   ~ 0
USB_D-
Text Label 8250 5150 0    50   ~ 0
USB_D+
Wire Wire Line
	8250 5250 8700 5250
Wire Wire Line
	8250 5150 8700 5150
NoConn ~ 9700 5450
NoConn ~ 8700 5450
Wire Wire Line
	8700 5550 8600 5550
Wire Wire Line
	8600 5550 8600 5650
Wire Wire Line
	8600 5650 8700 5650
Wire Wire Line
	8600 5650 8600 5900
Wire Wire Line
	8600 5900 9200 5900
Connection ~ 8600 5650
Wire Wire Line
	9700 5550 9800 5550
Wire Wire Line
	9800 5550 9800 5650
Wire Wire Line
	9800 5900 9200 5900
Connection ~ 9200 5900
Wire Wire Line
	9700 5650 9800 5650
Connection ~ 9800 5650
Wire Wire Line
	9800 5650 9800 5900
$Comp
L power:GND #PWR027
U 1 1 5F05EAEE
P 9200 5900
F 0 "#PWR027" H 9200 5650 50  0001 C CNN
F 1 "GND" H 9205 5727 50  0001 C CNN
F 2 "" H 9200 5900 50  0001 C CNN
F 3 "" H 9200 5900 50  0001 C CNN
	1    9200 5900
	1    0    0    -1  
$EndComp
Wire Wire Line
	8700 5350 8400 5350
$Comp
L Device:R_Small_US R12
U 1 1 5F086255
P 8400 5500
F 0 "R12" H 8550 5450 50  0000 R CNN
F 1 "5.1k" H 8650 5550 50  0000 R CNN
F 2 "Resistor_SMD:R_0603_1608Metric_Pad1.05x0.95mm_HandSolder" H 8400 5500 50  0001 C CNN
F 3 "~" H 8400 5500 50  0001 C CNN
	1    8400 5500
	-1   0    0    1   
$EndComp
Wire Wire Line
	8400 5400 8400 5350
$Comp
L power:GND #PWR022
U 1 1 5F0957F9
P 8400 5650
F 0 "#PWR022" H 8400 5400 50  0001 C CNN
F 1 "GND" H 8405 5477 50  0001 C CNN
F 2 "" H 8400 5650 50  0001 C CNN
F 3 "" H 8400 5650 50  0001 C CNN
	1    8400 5650
	1    0    0    -1  
$EndComp
Wire Wire Line
	8400 5600 8400 5650
Wire Wire Line
	9700 5350 10000 5350
$Comp
L Device:R_Small_US R21
U 1 1 5F0AF086
P 10000 5500
F 0 "R21" H 10150 5450 50  0000 R CNN
F 1 "5.1k" H 10250 5550 50  0000 R CNN
F 2 "Resistor_SMD:R_0603_1608Metric_Pad1.05x0.95mm_HandSolder" H 10000 5500 50  0001 C CNN
F 3 "~" H 10000 5500 50  0001 C CNN
	1    10000 5500
	1    0    0    1   
$EndComp
Wire Wire Line
	10000 5400 10000 5350
$Comp
L power:GND #PWR034
U 1 1 5F0AF08D
P 10000 5650
F 0 "#PWR034" H 10000 5400 50  0001 C CNN
F 1 "GND" H 10005 5477 50  0001 C CNN
F 2 "" H 10000 5650 50  0001 C CNN
F 3 "" H 10000 5650 50  0001 C CNN
	1    10000 5650
	-1   0    0    -1  
$EndComp
Wire Wire Line
	10000 5600 10000 5650
Text Notes 8100 4550 0    50   ~ 0
USB
Wire Notes Line
	8100 4550 8100 6100
Wire Notes Line
	10300 4550 10300 6100
Wire Notes Line
	8100 6100 10300 6100
Wire Notes Line
	8100 4550 10300 4550
Connection ~ 2500 6650
Wire Wire Line
	2500 6650 2650 6650
Text Notes 4600 900  0    50   ~ 0
MCU
Wire Notes Line
	4600 4600 4600 900 
Wire Notes Line
	7450 4600 4600 4600
Wire Notes Line
	7450 900  7450 4600
Wire Notes Line
	4600 900  7450 900 
Text Label 4950 1950 0    50   ~ 0
BOOT0
Wire Wire Line
	4950 1950 5400 1950
Text Label 4950 1850 0    50   ~ 0
OSC_OUT
Wire Wire Line
	4950 1850 5400 1850
Text Label 4950 1750 0    50   ~ 0
OSC_IN
Wire Wire Line
	4950 1750 5400 1750
Text Label 4950 1550 0    50   ~ 0
nRESET
Wire Wire Line
	4950 1550 5400 1550
Text Label 4950 3650 0    50   ~ 0
RGB1_R
Wire Wire Line
	6600 3050 7050 3050
Wire Wire Line
	6600 3150 7050 3150
Text Label 4950 2650 0    50   ~ 0
RGB0_B
Wire Wire Line
	5400 2350 4950 2350
Text Label 4950 3550 0    50   ~ 0
RGB0_G
Wire Wire Line
	5400 2250 4950 2250
Text Label 4950 2750 0    50   ~ 0
RGB0_R
Wire Wire Line
	5400 2150 4950 2150
Text Label 7050 3250 2    50   ~ 0
RGB1_B
Wire Wire Line
	5400 4050 4950 4050
Text Label 7050 4050 2    50   ~ 0
USB_NOE
Wire Wire Line
	6600 4050 7050 4050
Text Label 4950 3750 0    50   ~ 0
HB_LED
Wire Wire Line
	6600 3250 7050 3250
$Comp
L QAZ:TestPoint TP8
U 1 1 5E460D6E
P 7050 3650
F 0 "TP8" V 7050 3950 50  0000 R CNN
F 1 "TestPoint" H 7050 3500 50  0001 C CNN
F 2 "QAZ_pcb_lib:TestPoint_SurfaceMount_0805_HS" H 7050 3650 50  0001 C CNN
F 3 "" H 7050 3650 50  0001 C CNN
	1    7050 3650
	0    1    1    0   
$EndComp
$Comp
L QAZ:TestPoint TP9
U 1 1 5E460CFC
P 7050 3750
F 0 "TP9" V 7050 4050 50  0000 R CNN
F 1 "TestPoint" H 7050 3600 50  0001 C CNN
F 2 "QAZ_pcb_lib:TestPoint_SurfaceMount_0805_HS" H 7050 3750 50  0001 C CNN
F 3 "" H 7050 3750 50  0001 C CNN
	1    7050 3750
	0    1    1    0   
$EndComp
$Comp
L QAZ:TestPoint TP7
U 1 1 5E45FCEF
P 7050 3350
F 0 "TP7" V 7050 3600 50  0000 R CNN
F 1 "TestPoint" H 7050 3200 50  0001 C CNN
F 2 "QAZ_pcb_lib:TestPoint_SurfaceMount_0805_HS" H 7050 3350 50  0001 C CNN
F 3 "" H 7050 3350 50  0001 C CNN
	1    7050 3350
	0    1    1    0   
$EndComp
Text Label 4950 3450 0    50   ~ 0
ROW04
Text Label 4950 3250 0    50   ~ 0
ROW03
Text Label 4950 2950 0    50   ~ 0
ROW02
Text Label 4950 3850 0    50   ~ 0
ROW01
Text Label 4950 3950 0    50   ~ 0
ROW00
Text Label 7050 3150 2    50   ~ 0
COL14
Text Label 7050 2850 2    50   ~ 0
COL13
Text Label 7050 2750 2    50   ~ 0
COL12
Text Label 7050 2650 2    50   ~ 0
COL11
Text Label 4950 2250 0    50   ~ 0
COL10
Text Label 7050 3050 2    50   ~ 0
COL09
Text Label 7050 2550 2    50   ~ 0
COL08
Text Label 7050 2950 2    50   ~ 0
COL07
Text Label 4950 2350 0    50   ~ 0
COL06
Text Label 4950 2150 0    50   ~ 0
COL05
Text Label 4950 3350 0    50   ~ 0
COL04
Text Label 4950 3150 0    50   ~ 0
COL03
Text Label 4950 3050 0    50   ~ 0
COL02
Text Label 4950 2850 0    50   ~ 0
COL01
Text Label 4950 4050 0    50   ~ 0
COL00
Wire Wire Line
	6600 2950 7050 2950
Wire Wire Line
	6600 2850 7050 2850
Wire Wire Line
	6600 2750 7050 2750
Wire Wire Line
	6600 2650 7050 2650
Wire Wire Line
	6600 2550 7050 2550
Wire Wire Line
	5400 2550 4950 2550
Wire Wire Line
	5400 3950 4950 3950
Wire Wire Line
	5400 3850 4950 3850
Wire Wire Line
	5400 3750 4950 3750
Wire Wire Line
	5400 3650 4950 3650
Wire Wire Line
	5400 3550 4950 3550
Wire Wire Line
	5400 3450 4950 3450
Wire Wire Line
	5400 3350 4950 3350
Wire Wire Line
	5400 3250 4950 3250
Wire Wire Line
	5400 3150 4950 3150
Wire Wire Line
	5400 3050 4950 3050
Wire Wire Line
	5400 2950 4950 2950
Wire Wire Line
	5400 2850 4950 2850
Wire Wire Line
	5400 2750 4950 2750
Wire Wire Line
	5400 2650 4950 2650
Text Label 7050 3350 2    50   ~ 0
CLKOUT
Wire Wire Line
	6600 3350 7050 3350
Text Label 7050 3550 2    50   ~ 0
DBG_RX
Text Label 7050 3450 2    50   ~ 0
DBG_TX
Wire Wire Line
	6600 3450 7050 3450
Wire Wire Line
	6600 3550 7050 3550
Text Label 7050 3950 2    50   ~ 0
SWCLK
Text Label 7050 3850 2    50   ~ 0
SWDIO
Wire Wire Line
	6600 3950 7050 3950
Wire Wire Line
	6600 3850 7050 3850
Wire Wire Line
	6600 3750 7050 3750
Wire Wire Line
	6600 3650 7050 3650
Text Label 7050 3750 2    50   ~ 0
USB_D+
Text Label 7050 3650 2    50   ~ 0
USB_D-
Wire Wire Line
	5950 4400 6000 4400
Connection ~ 5950 4400
$Comp
L power:GND #PWR020
U 1 1 5E2DC8F5
P 5950 4400
F 0 "#PWR020" H 5950 4150 50  0001 C CNN
F 1 "GND" H 5955 4227 50  0001 C CNN
F 2 "" H 5950 4400 50  0001 C CNN
F 3 "" H 5950 4400 50  0001 C CNN
	1    5950 4400
	1    0    0    -1  
$EndComp
Wire Wire Line
	5900 4400 5950 4400
Connection ~ 5900 4400
Wire Wire Line
	5900 4250 5900 4400
Wire Wire Line
	6000 4400 6100 4400
Connection ~ 6000 4400
Wire Wire Line
	6000 4250 6000 4400
Wire Wire Line
	6100 4400 6100 4250
Wire Wire Line
	5800 4400 5900 4400
Wire Wire Line
	5800 4250 5800 4400
$Comp
L power:+3.3V #PWR021
U 1 1 5E2DBDBA
P 6000 1200
F 0 "#PWR021" H 6000 1050 50  0001 C CNN
F 1 "+3.3V" H 6015 1373 50  0000 C CNN
F 2 "" H 6000 1200 50  0001 C CNN
F 3 "" H 6000 1200 50  0001 C CNN
	1    6000 1200
	1    0    0    -1  
$EndComp
Wire Wire Line
	5900 1200 6000 1200
Connection ~ 5900 1200
Wire Wire Line
	5900 1350 5900 1200
Wire Wire Line
	6000 1200 6100 1200
Connection ~ 6000 1200
Wire Wire Line
	6000 1350 6000 1200
Wire Wire Line
	6100 1200 6200 1200
Connection ~ 6100 1200
Wire Wire Line
	6100 1350 6100 1200
Wire Wire Line
	6200 1200 6200 1350
Wire Wire Line
	5800 1200 5900 1200
Wire Wire Line
	5800 1350 5800 1200
$Comp
L MCU_ST_STM32F0:STM32F042C6Tx U2
U 1 1 5E2D729B
P 6000 2750
F 0 "U2" H 5550 1300 50  0000 C CNN
F 1 "STM32F042C6Tx" H 6450 1300 50  0000 C CNN
F 2 "QAZ_pcb_lib:TQFP-48_7x7mm_P0.5mm_HS" H 5500 1350 50  0001 R CNN
F 3 "http://www.st.com/st-web-ui/static/active/en/resource/technical/document/datasheet/DM00105814.pdf" H 6000 2750 50  0001 C CNN
	1    6000 2750
	1    0    0    -1  
$EndComp
Text Notes 1600 4700 0    50   ~ 0
Indicator LEDs
Wire Notes Line
	1600 4700 3550 4700
Wire Notes Line
	3550 5650 1600 5650
Wire Notes Line
	3550 4700 3550 5650
Wire Notes Line
	1600 5650 1600 4700
$Comp
L power:+3.3V #PWR09
U 1 1 5E4E11D9
P 2000 4950
F 0 "#PWR09" H 2000 4800 50  0001 C CNN
F 1 "+3.3V" H 2015 5123 50  0000 C CNN
F 2 "" H 2000 4950 50  0001 C CNN
F 3 "" H 2000 4950 50  0001 C CNN
	1    2000 4950
	1    0    0    -1  
$EndComp
Wire Wire Line
	2000 5500 2000 5550
Text Label 2000 5550 2    50   ~ 0
USB_NOE
$Comp
L power:+5V #PWR010
U 1 1 5E4D469B
P 2400 4950
F 0 "#PWR010" H 2400 4800 50  0001 C CNN
F 1 "+5V" H 2415 5123 50  0000 C CNN
F 2 "" H 2400 4950 50  0001 C CNN
F 3 "" H 2400 4950 50  0001 C CNN
	1    2400 4950
	1    0    0    -1  
$EndComp
$Comp
L power:+3.3V #PWR012
U 1 1 5E4D45F7
P 2800 4950
F 0 "#PWR012" H 2800 4800 50  0001 C CNN
F 1 "+3.3V" H 2815 5123 50  0000 C CNN
F 2 "" H 2800 4950 50  0001 C CNN
F 3 "" H 2800 4950 50  0001 C CNN
	1    2800 4950
	1    0    0    -1  
$EndComp
Wire Wire Line
	2800 5000 2800 4950
Wire Wire Line
	2000 5000 2000 4950
$Comp
L Device:LED_ALT LED1
U 1 1 5E4A35B7
P 2000 5350
F 0 "LED1" V 2050 5650 50  0000 R CNN
F 1 "AMBER" V 1950 5650 50  0000 R CNN
F 2 "Resistor_SMD:R_0603_1608Metric_Pad1.05x0.95mm_HandSolder" H 2000 5350 50  0001 C CNN
F 3 "~" H 2000 5350 50  0001 C CNN
	1    2000 5350
	0    -1   -1   0   
$EndComp
$Comp
L Device:R_Small_US R1
U 1 1 5E4A35B0
P 2000 5100
F 0 "R1" H 2150 5050 50  0000 R CNN
F 1 "1.3k" H 2200 5150 50  0000 R CNN
F 2 "Resistor_SMD:R_0603_1608Metric_Pad1.05x0.95mm_HandSolder" H 2000 5100 50  0001 C CNN
F 3 "~" H 2000 5100 50  0001 C CNN
	1    2000 5100
	-1   0    0    1   
$EndComp
Text Label 3200 4950 0    50   ~ 0
HB_LED
Wire Wire Line
	3200 5000 3200 4950
$Comp
L power:GND #PWR015
U 1 1 5E300968
P 3200 5500
F 0 "#PWR015" H 3200 5250 50  0001 C CNN
F 1 "GND" H 3205 5327 50  0001 C CNN
F 2 "" H 3200 5500 50  0001 C CNN
F 3 "" H 3200 5500 50  0001 C CNN
	1    3200 5500
	1    0    0    -1  
$EndComp
$Comp
L Device:LED_ALT LED4
U 1 1 5E300961
P 3200 5350
F 0 "LED4" V 3250 5650 50  0000 R CNN
F 1 "RED" V 3150 5650 50  0000 R CNN
F 2 "Resistor_SMD:R_0603_1608Metric_Pad1.05x0.95mm_HandSolder" H 3200 5350 50  0001 C CNN
F 3 "~" H 3200 5350 50  0001 C CNN
	1    3200 5350
	0    -1   -1   0   
$EndComp
$Comp
L Device:R_Small_US R4
U 1 1 5E30095A
P 3200 5100
F 0 "R4" H 3350 5050 50  0000 R CNN
F 1 "1.3k" H 3400 5150 50  0000 R CNN
F 2 "Resistor_SMD:R_0603_1608Metric_Pad1.05x0.95mm_HandSolder" H 3200 5100 50  0001 C CNN
F 3 "~" H 3200 5100 50  0001 C CNN
	1    3200 5100
	-1   0    0    1   
$EndComp
Wire Wire Line
	2400 5000 2400 4950
$Comp
L power:GND #PWR013
U 1 1 5E2FCCAD
P 2800 5500
F 0 "#PWR013" H 2800 5250 50  0001 C CNN
F 1 "GND" H 2805 5327 50  0001 C CNN
F 2 "" H 2800 5500 50  0001 C CNN
F 3 "" H 2800 5500 50  0001 C CNN
	1    2800 5500
	1    0    0    -1  
$EndComp
$Comp
L Device:LED_ALT LED3
U 1 1 5E2FCC3B
P 2800 5350
F 0 "LED3" V 2850 5650 50  0000 R CNN
F 1 "GREEN" V 2750 5650 50  0000 R CNN
F 2 "Resistor_SMD:R_0603_1608Metric_Pad1.05x0.95mm_HandSolder" H 2800 5350 50  0001 C CNN
F 3 "~" H 2800 5350 50  0001 C CNN
	1    2800 5350
	0    -1   -1   0   
$EndComp
$Comp
L Device:R_Small_US R3
U 1 1 5E2FCBBB
P 2800 5100
F 0 "R3" H 2950 5050 50  0000 R CNN
F 1 "1.3k" H 3000 5150 50  0000 R CNN
F 2 "Resistor_SMD:R_0603_1608Metric_Pad1.05x0.95mm_HandSolder" H 2800 5100 50  0001 C CNN
F 3 "~" H 2800 5100 50  0001 C CNN
	1    2800 5100
	-1   0    0    1   
$EndComp
$Comp
L power:GND #PWR011
U 1 1 5E2FB96C
P 2400 5500
F 0 "#PWR011" H 2400 5250 50  0001 C CNN
F 1 "GND" H 2405 5327 50  0001 C CNN
F 2 "" H 2400 5500 50  0001 C CNN
F 3 "" H 2400 5500 50  0001 C CNN
	1    2400 5500
	1    0    0    -1  
$EndComp
$Comp
L Device:LED_ALT LED2
U 1 1 5E2F9BE9
P 2400 5350
F 0 "LED2" V 2450 5650 50  0000 R CNN
F 1 "BLUE" V 2350 5650 50  0000 R CNN
F 2 "Resistor_SMD:R_0603_1608Metric_Pad1.05x0.95mm_HandSolder" H 2400 5350 50  0001 C CNN
F 3 "~" H 2400 5350 50  0001 C CNN
	1    2400 5350
	0    -1   -1   0   
$EndComp
$Comp
L Device:R_Small_US R2
U 1 1 5E2F9708
P 2400 5100
F 0 "R2" H 2550 5050 50  0000 R CNN
F 1 "1.69k" H 2650 5150 50  0000 R CNN
F 2 "Resistor_SMD:R_0603_1608Metric_Pad1.05x0.95mm_HandSolder" H 2400 5100 50  0001 C CNN
F 3 "~" H 2400 5100 50  0001 C CNN
	1    2400 5100
	-1   0    0    1   
$EndComp
$Sheet
S 5550 5200 800  1100
U 5EEB2DAF
F0 "QAZ Keys" 50
F1 "QAZ_keys.sch" 50
F2 "ROW00" O L 5550 5300 50 
F3 "ROW01" O L 5550 5400 50 
F4 "ROW02" O L 5550 5500 50 
F5 "ROW03" O L 5550 5600 50 
F6 "ROW04" O L 5550 5700 50 
F7 "COL00" I L 5550 5800 50 
F8 "COL01" I L 5550 5900 50 
F9 "COL02" I L 5550 6000 50 
F10 "COL03" I L 5550 6100 50 
F11 "COL04" I L 5550 6200 50 
F12 "COL05" I R 6350 5300 50 
F13 "COL06" I R 6350 5400 50 
F14 "COL07" I R 6350 5500 50 
F15 "COL08" I R 6350 5600 50 
F16 "COL09" I R 6350 5700 50 
F17 "COL10" I R 6350 5800 50 
F18 "COL11" I R 6350 5900 50 
F19 "COL12" I R 6350 6000 50 
F20 "COL13" I R 6350 6100 50 
F21 "COL14" I R 6350 6200 50 
$EndSheet
Wire Wire Line
	5450 5300 5550 5300
$Comp
L Device:R_Small_US R?
U 1 1 5F27B0E0
P 5350 5300
AR Path="/5EEB2DAF/5F27B0E0" Ref="R?"  Part="1" 
AR Path="/5F27B0E0" Ref="R7"  Part="1" 
F 0 "R7" V 5400 5250 50  0000 R CNN
F 1 "1k" V 5400 5450 50  0000 R CNN
F 2 "Resistor_SMD:R_0603_1608Metric_Pad1.05x0.95mm_HandSolder" H 5350 5300 50  0001 C CNN
F 3 "~" H 5350 5300 50  0001 C CNN
	1    5350 5300
	0    1    -1   0   
$EndComp
$Comp
L Device:R_Small_US R?
U 1 1 5F27B0E6
P 5350 5400
AR Path="/5EEB2DAF/5F27B0E6" Ref="R?"  Part="1" 
AR Path="/5F27B0E6" Ref="R8"  Part="1" 
F 0 "R8" V 5400 5350 50  0000 R CNN
F 1 "1k" V 5400 5550 50  0000 R CNN
F 2 "Resistor_SMD:R_0603_1608Metric_Pad1.05x0.95mm_HandSolder" H 5350 5400 50  0001 C CNN
F 3 "~" H 5350 5400 50  0001 C CNN
	1    5350 5400
	0    1    -1   0   
$EndComp
$Comp
L Device:R_Small_US R?
U 1 1 5F27B0EC
P 5350 5500
AR Path="/5EEB2DAF/5F27B0EC" Ref="R?"  Part="1" 
AR Path="/5F27B0EC" Ref="R9"  Part="1" 
F 0 "R9" V 5400 5450 50  0000 R CNN
F 1 "1k" V 5400 5650 50  0000 R CNN
F 2 "Resistor_SMD:R_0603_1608Metric_Pad1.05x0.95mm_HandSolder" H 5350 5500 50  0001 C CNN
F 3 "~" H 5350 5500 50  0001 C CNN
	1    5350 5500
	0    1    -1   0   
$EndComp
$Comp
L Device:R_Small_US R?
U 1 1 5F27B0F2
P 5350 5600
AR Path="/5EEB2DAF/5F27B0F2" Ref="R?"  Part="1" 
AR Path="/5F27B0F2" Ref="R10"  Part="1" 
F 0 "R10" V 5400 5550 50  0000 R CNN
F 1 "1k" V 5400 5750 50  0000 R CNN
F 2 "Resistor_SMD:R_0603_1608Metric_Pad1.05x0.95mm_HandSolder" H 5350 5600 50  0001 C CNN
F 3 "~" H 5350 5600 50  0001 C CNN
	1    5350 5600
	0    1    -1   0   
$EndComp
Wire Wire Line
	5450 5700 5550 5700
Wire Wire Line
	5450 5600 5550 5600
Wire Wire Line
	5450 5500 5550 5500
Wire Wire Line
	5550 5400 5450 5400
$Comp
L Device:R_Small_US R?
U 1 1 5F27B0FC
P 5350 5700
AR Path="/5EEB2DAF/5F27B0FC" Ref="R?"  Part="1" 
AR Path="/5F27B0FC" Ref="R11"  Part="1" 
F 0 "R11" V 5400 5650 50  0000 R CNN
F 1 "1k" V 5400 5850 50  0000 R CNN
F 2 "Resistor_SMD:R_0603_1608Metric_Pad1.05x0.95mm_HandSolder" H 5350 5700 50  0001 C CNN
F 3 "~" H 5350 5700 50  0001 C CNN
	1    5350 5700
	0    1    -1   0   
$EndComp
Text Label 5100 6000 0    50   ~ 0
COL02
Text Label 5100 6100 0    50   ~ 0
COL03
Text Label 5100 6200 0    50   ~ 0
COL04
Wire Wire Line
	5550 6200 5100 6200
Wire Wire Line
	5550 6100 5100 6100
Wire Wire Line
	5550 6000 5100 6000
Wire Wire Line
	5550 5900 5100 5900
Wire Wire Line
	5550 5800 5100 5800
Text Label 4800 5700 0    50   ~ 0
ROW04
Text Label 4800 5600 0    50   ~ 0
ROW03
Text Label 4800 5500 0    50   ~ 0
ROW02
Text Label 4800 5400 0    50   ~ 0
ROW01
Text Label 4800 5300 0    50   ~ 0
ROW00
Wire Wire Line
	5250 5700 4800 5700
Wire Wire Line
	5250 5600 4800 5600
Wire Wire Line
	5250 5500 4800 5500
Wire Wire Line
	5250 5400 4800 5400
Wire Wire Line
	5250 5300 4800 5300
Text Label 5100 5900 0    50   ~ 0
COL01
Text Label 5100 5800 0    50   ~ 0
COL00
Text Label 6800 5500 2    50   ~ 0
COL07
Text Label 6800 5600 2    50   ~ 0
COL08
Text Label 6800 5700 2    50   ~ 0
COL09
Wire Wire Line
	6350 5700 6800 5700
Wire Wire Line
	6350 5600 6800 5600
Wire Wire Line
	6350 5500 6800 5500
Wire Wire Line
	6350 5400 6800 5400
Wire Wire Line
	6350 5300 6800 5300
Text Label 6800 5400 2    50   ~ 0
COL06
Text Label 6800 5300 2    50   ~ 0
COL05
Text Label 6800 6000 2    50   ~ 0
COL12
Text Label 6800 6100 2    50   ~ 0
COL13
Text Label 6800 6200 2    50   ~ 0
COL14
Wire Wire Line
	6350 6200 6800 6200
Wire Wire Line
	6350 6100 6800 6100
Wire Wire Line
	6350 6000 6800 6000
Wire Wire Line
	6350 5900 6800 5900
Wire Wire Line
	6350 5800 6800 5800
Text Label 6800 5900 2    50   ~ 0
COL11
Text Label 6800 5800 2    50   ~ 0
COL10
Text Label 4950 2550 0    50   ~ 0
RGB1_G
$Comp
L Device:LED_RGB LED5
U 1 1 5FB54609
P 8850 1650
F 0 "LED5" V 8900 2200 50  0000 R CNN
F 1 "RGB" V 8800 2200 50  0000 R CNN
F 2 "LED_SMD:LED_RGB_PLCC-6" H 8850 1600 50  0001 C CNN
F 3 "~" H 8850 1600 50  0001 C CNN
	1    8850 1650
	0    -1   -1   0   
$EndComp
Wire Wire Line
	8650 1850 8850 1850
Connection ~ 8850 1850
Wire Wire Line
	8850 1850 9050 1850
Connection ~ 9600 1850
Wire Wire Line
	9600 1850 9800 1850
Wire Wire Line
	9400 1850 9600 1850
$Comp
L power:GND #PWR025
U 1 1 5FB92AD8
P 8850 1850
F 0 "#PWR025" H 8850 1600 50  0001 C CNN
F 1 "GND" H 8855 1677 50  0001 C CNN
F 2 "" H 8850 1850 50  0001 C CNN
F 3 "" H 8850 1850 50  0001 C CNN
	1    8850 1850
	1    0    0    -1  
$EndComp
$Comp
L power:GND #PWR028
U 1 1 5FB92E01
P 9600 1850
F 0 "#PWR028" H 9600 1600 50  0001 C CNN
F 1 "GND" H 9605 1677 50  0001 C CNN
F 2 "" H 9600 1850 50  0001 C CNN
F 3 "" H 9600 1850 50  0001 C CNN
	1    9600 1850
	1    0    0    -1  
$EndComp
$Comp
L Device:R_Small_US R14
U 1 1 5FB95F1B
P 8650 1350
F 0 "R14" H 8800 1300 50  0000 R CNN
F 1 "60" H 8800 1400 50  0000 R CNN
F 2 "Resistor_SMD:R_0603_1608Metric_Pad1.05x0.95mm_HandSolder" H 8650 1350 50  0001 C CNN
F 3 "~" H 8650 1350 50  0001 C CNN
	1    8650 1350
	-1   0    0    1   
$EndComp
$Comp
L Device:R_Small_US R15
U 1 1 5FB97012
P 8850 1350
F 0 "R15" H 9000 1300 50  0000 R CNN
F 1 "20" H 9000 1400 50  0000 R CNN
F 2 "Resistor_SMD:R_0603_1608Metric_Pad1.05x0.95mm_HandSolder" H 8850 1350 50  0001 C CNN
F 3 "~" H 8850 1350 50  0001 C CNN
	1    8850 1350
	-1   0    0    1   
$EndComp
$Comp
L Device:R_Small_US R16
U 1 1 5FB97328
P 9050 1350
F 0 "R16" H 9200 1300 50  0000 R CNN
F 1 "20" H 9200 1400 50  0000 R CNN
F 2 "Resistor_SMD:R_0603_1608Metric_Pad1.05x0.95mm_HandSolder" H 9050 1350 50  0001 C CNN
F 3 "~" H 9050 1350 50  0001 C CNN
	1    9050 1350
	-1   0    0    1   
$EndComp
$Comp
L Device:LED_RGB LED6
U 1 1 5FB54D8F
P 9600 1650
F 0 "LED6" V 9650 1300 50  0000 R CNN
F 1 "RGB" V 9550 1300 50  0000 R CNN
F 2 "LED_SMD:LED_RGB_PLCC-6" H 9600 1600 50  0001 C CNN
F 3 "~" H 9600 1600 50  0001 C CNN
	1    9600 1650
	0    -1   -1   0   
$EndComp
$Comp
L Device:R_Small_US R17
U 1 1 5FBC0436
P 9400 1350
F 0 "R17" H 9550 1300 50  0000 R CNN
F 1 "60" H 9550 1400 50  0000 R CNN
F 2 "Resistor_SMD:R_0603_1608Metric_Pad1.05x0.95mm_HandSolder" H 9400 1350 50  0001 C CNN
F 3 "~" H 9400 1350 50  0001 C CNN
	1    9400 1350
	-1   0    0    1   
$EndComp
$Comp
L Device:R_Small_US R18
U 1 1 5FBC043C
P 9600 1350
F 0 "R18" H 9750 1300 50  0000 R CNN
F 1 "20" H 9750 1400 50  0000 R CNN
F 2 "Resistor_SMD:R_0603_1608Metric_Pad1.05x0.95mm_HandSolder" H 9600 1350 50  0001 C CNN
F 3 "~" H 9600 1350 50  0001 C CNN
	1    9600 1350
	-1   0    0    1   
$EndComp
$Comp
L Device:R_Small_US R19
U 1 1 5FBC0442
P 9800 1350
F 0 "R19" H 9950 1300 50  0000 R CNN
F 1 "20" H 9950 1400 50  0000 R CNN
F 2 "Resistor_SMD:R_0603_1608Metric_Pad1.05x0.95mm_HandSolder" H 9800 1350 50  0001 C CNN
F 3 "~" H 9800 1350 50  0001 C CNN
	1    9800 1350
	-1   0    0    1   
$EndComp
Text Label 8650 1250 1    50   ~ 0
RGB0_R
Text Label 8850 1250 1    50   ~ 0
RGB0_G
Text Label 9050 1250 1    50   ~ 0
RGB0_B
Text Label 9400 1250 1    50   ~ 0
RGB1_R
Text Label 9600 1250 1    50   ~ 0
RGB2_G
Text Label 9800 1250 1    50   ~ 0
RGB3_B
Text Notes 8250 900  0    50   ~ 0
RGB LEDs
Wire Notes Line
	10200 900  10200 2000
Wire Notes Line
	8250 900  8250 2000
Wire Notes Line
	8250 900  10200 900 
Wire Notes Line
	10200 2000 8250 2000
$EndSCHEMATC
