<?xml version="1.0" encoding="UTF-8" standalone="no"?>
<!-- Generated by SVGo -->

<svg
   xmlns:dc="http://purl.org/dc/elements/1.1/"
   xmlns:cc="http://creativecommons.org/ns#"
   xmlns:rdf="http://www.w3.org/1999/02/22-rdf-syntax-ns#"
   xmlns:svg="http://www.w3.org/2000/svg"
   xmlns="http://www.w3.org/2000/svg"
   xmlns:sodipodi="http://sodipodi.sourceforge.net/DTD/sodipodi-0.dtd"
   xmlns:inkscape="http://www.inkscape.org/namespaces/inkscape"
   width="334.802mm"
   height="125.252mm"
   viewBox="0.000 0.000 334.802 125.252"
   version="1.1"
   id="svg4283"
   sodipodi:docname="plate-layer-104_v1.svg"
   inkscape:version="0.92.4 (5da689c313, 2019-01-14)">
  <metadata
     id="metadata4289">
    <rdf:RDF>
      <cc:Work
         rdf:about="">
        <dc:format>image/svg+xml</dc:format>
        <dc:type
           rdf:resource="http://purl.org/dc/dcmitype/StillImage" />
        <dc:title></dc:title>
      </cc:Work>
    </rdf:RDF>
  </metadata>
  <defs
     id="defs4287" />
  <sodipodi:namedview
     pagecolor="#ffffff"
     bordercolor="#666666"
     borderopacity="1"
     objecttolerance="10"
     gridtolerance="10"
     guidetolerance="10"
     inkscape:pageopacity="0"
     inkscape:pageshadow="2"
     inkscape:window-width="2560"
     inkscape:window-height="1387"
     id="namedview4285"
     showgrid="true"
     inkscape:zoom="1.4142136"
     inkscape:cx="751.38841"
     inkscape:cy="199.86117"
     inkscape:window-x="1912"
     inkscape:window-y="-8"
     inkscape:window-maximized="1"
     inkscape:current-layer="svg4283"
     showguides="false">
    <inkscape:grid
       type="xygrid"
       id="grid4336" />
  </sodipodi:namedview>
  <polygon
     points="325.802,5.001 326.115,5.013 326.427,5.050 326.735,5.111 327.038,5.196 327.332,5.305 327.617,5.436 327.891,5.590 328.153,5.764 328.399,5.959 328.630,6.172 328.843,6.403 329.038,6.649 329.212,6.911 329.366,7.185 329.497,7.470 329.606,7.764 329.691,8.067 329.752,8.375 329.789,8.687 329.802,9.001 329.802,116.251 329.789,116.565 329.752,116.877 329.691,117.185 329.606,117.488 329.497,117.782 329.366,118.067 329.212,118.341 329.038,118.603 328.843,118.849 328.630,119.080 328.399,119.293 328.153,119.488 327.891,119.662 327.617,119.816 327.332,119.947 327.038,120.056 326.735,120.141 326.427,120.202 326.115,120.239 325.802,120.252 9.001,120.251 8.687,120.239 8.375,120.202 8.067,120.141 7.764,120.056 7.470,119.947 7.185,119.816 6.911,119.662 6.649,119.488 6.403,119.293 6.172,119.080 5.959,118.849 5.764,118.603 5.590,118.341 5.436,118.067 5.305,117.782 5.196,117.488 5.111,117.185 5.050,116.877 5.013,116.565 5.000,116.251 5.001,9.001 5.013,8.687 5.050,8.375 5.111,8.067 5.196,7.764 5.305,7.470 5.436,7.185 5.590,6.911 5.764,6.649 5.959,6.403 6.172,6.172 6.403,5.959 6.649,5.764 6.911,5.590 7.185,5.436 7.470,5.305 7.764,5.196 8.067,5.111 8.375,5.050 8.687,5.013 9.001,5.000"
     style="fill:none;stroke-width:0.050000mm;stroke:black"
     id="polygon4121" />
  <polygon
     points="9.002,114.927 8.95,115.252 9.002,115.576 9.151,115.869 9.383,116.101 9.676,116.25 10,116.302 10.325,116.25 10.618,116.101 10.85,115.869 10.999,115.576 11.05,115.252 10.999,114.927 10.85,114.634 10.618,114.402 10.325,114.253 10,114.202 9.676,114.253 9.383,114.402 9.151,114.634 "
     style="fill:none;stroke:#000000;stroke-width:0.04296761mm"
     id="polygon4123"
     transform="matrix(1.2567607,0,0,1.2567607,-2.5676047,-29.592181)" />
  <polygon
     points="87.702,114.927 87.651,115.252 87.702,115.576 87.851,115.869 88.084,116.101 88.376,116.25 88.701,116.302 89.025,116.25 89.318,116.101 89.55,115.869 89.699,115.576 89.751,115.252 89.699,114.927 89.55,114.634 89.318,114.402 89.025,114.253 88.701,114.202 88.376,114.253 88.084,114.402 87.851,114.634 "
     style="fill:none;stroke:#000000;stroke-width:0.04296761mm"
     id="polygon4125"
     transform="matrix(1.2567607,0,0,1.2567607,-22.774928,-29.592181)" />
  <polygon
     points="166.402,114.927 166.351,115.252 166.402,115.576 166.552,115.869 166.784,116.101 167.077,116.25 167.401,116.302 167.725,116.25 168.018,116.101 168.25,115.869 168.4,115.576 168.451,115.252 168.4,114.927 168.25,114.634 168.018,114.402 167.725,114.253 167.401,114.202 167.077,114.253 166.784,114.402 166.552,114.634 "
     style="fill:none;stroke:#000000;stroke-width:0.04296766mm"
     id="polygon4127"
     transform="matrix(1.2567571,0,0,1.2567612,-42.981399,-29.592244)" />
  <polygon
     points="245.103,114.927 245.051,115.252 245.103,115.576 245.252,115.869 245.484,116.101 245.777,116.25 246.101,116.302 246.426,116.25 246.718,116.101 246.951,115.869 247.1,115.576 247.151,115.252 247.1,114.927 246.951,114.634 246.718,114.402 246.426,114.253 246.101,114.202 245.777,114.253 245.484,114.402 245.252,114.634 "
     style="fill:none;stroke:#000000;stroke-width:0.04296761mm"
     id="polygon4129"
     transform="matrix(1.2567607,0,0,1.2567607,-63.189051,-29.592181)" />
  <polygon
     points="323.803,114.927 323.752,115.252 323.803,115.576 323.952,115.869 324.184,116.101 324.477,116.25 324.802,116.302 325.126,116.25 325.419,116.101 325.651,115.869 325.8,115.576 325.852,115.252 325.8,114.927 325.651,114.634 325.419,114.402 325.126,114.253 324.802,114.202 324.477,114.253 324.184,114.402 323.952,114.634 "
     style="fill:none;stroke:#000000;stroke-width:0.04296761mm"
     id="polygon4131"
     transform="matrix(1.2567607,0,0,1.2567607,-83.396374,-29.592181)" />
  <polygon
     points="302.476,97.825 303.276,97.825 303.276,103.626 302.476,103.626 302.476,106.726 303.276,106.726 303.276,107.726 317.276,107.726 317.276,106.726 318.076,106.726 318.076,103.626 317.276,103.626 317.276,97.825 318.076,97.825 318.076,94.726 317.276,94.726 317.276,93.726 303.276,93.726 303.276,94.726 302.476,94.726 "
     style="fill:none;stroke:#000000;stroke-width:0.05266708mm"
     id="polygon4135"
     transform="matrix(0.97787614,0,0,0.97780483,6.8645039,2.2356301)" />
  <polygon
     points="283.426,97.825 284.226,97.825 284.226,103.626 283.426,103.626 283.426,106.726 284.226,106.726 284.226,107.726 298.226,107.726 298.226,106.726 299.026,106.726 299.026,103.626 298.226,103.626 298.226,97.825 299.026,97.825 299.026,94.726 298.226,94.726 298.226,93.726 284.226,93.726 284.226,94.726 283.426,94.726 "
     style="fill:none;stroke:#000000;stroke-width:0.05266708mm"
     id="polygon4137"
     transform="matrix(0.97787614,0,0,0.97780483,6.4430448,2.2356301)" />
  <polygon
     points="264.376,97.825 265.176,97.825 265.176,103.626 264.376,103.626 264.376,106.726 265.176,106.726 265.176,107.726 279.176,107.726 279.176,106.726 279.976,106.726 279.976,103.626 279.176,103.626 279.176,97.825 279.976,97.825 279.976,94.726 279.176,94.726 279.176,93.726 265.176,93.726 265.176,94.726 264.376,94.726 "
     style="fill:none;stroke:#000000;stroke-width:0.05266708mm"
     id="polygon4139"
     transform="matrix(0.97787614,0,0,0.97780483,6.0215846,2.2356301)" />
  <polygon
     points="245.326,97.825 246.126,97.825 246.126,103.626 245.326,103.626 245.326,106.726 246.126,106.726 246.126,107.726 260.126,107.726 260.126,106.726 260.926,106.726 260.926,103.626 260.126,103.626 260.126,97.825 260.926,97.825 260.926,94.726 260.126,94.726 260.126,93.726 246.126,93.726 246.126,94.726 245.326,94.726 "
     style="fill:none;stroke:#000000;stroke-width:0.05266708mm"
     id="polygon4141"
     transform="matrix(0.97787614,0,0,0.97780483,5.6001255,2.2356301)" />
  <polygon
     points="226.276,97.825 227.076,97.825 227.076,103.626 226.276,103.626 226.276,106.726 227.076,106.726 227.076,107.726 241.076,107.726 241.076,106.726 241.876,106.726 241.876,103.626 241.076,103.626 241.076,97.825 241.876,97.825 241.876,94.726 241.076,94.726 241.076,93.726 227.076,93.726 227.076,94.726 226.276,94.726 "
     style="fill:none;stroke:#000000;stroke-width:0.05266708mm"
     id="polygon4143"
     transform="matrix(0.97787614,0,0,0.97780483,5.1786653,2.2356301)" />
  <polygon
     points="207.226,97.825 208.026,97.825 208.026,103.626 207.226,103.626 207.226,106.726 208.026,106.726 208.026,107.726 222.026,107.726 222.026,106.726 222.826,106.726 222.826,103.626 222.026,103.626 222.026,97.825 222.826,97.825 222.826,94.726 222.026,94.726 222.026,93.726 208.026,93.726 208.026,94.726 207.226,94.726 "
     style="fill:none;stroke:#000000;stroke-width:0.05266708mm"
     id="polygon4145"
     transform="matrix(0.97787614,0,0,0.97780483,4.7572062,2.2356301)" />
  <polygon
     points="66.732,97.825 67.532,97.825 67.532,103.626 66.732,103.626 66.732,106.726 67.532,106.726 67.532,107.726 81.532,107.726 81.532,106.726 82.332,106.726 82.332,103.626 81.532,103.626 81.532,97.825 82.332,97.825 82.332,94.726 81.532,94.726 81.532,93.726 67.532,93.726 67.532,94.726 66.732,94.726 "
     style="fill:none;stroke:#000000;stroke-width:0.05266708mm"
     id="polygon4147"
     transform="matrix(0.97787614,0,0,0.97780483,1.6489358,2.2356301)" />
  <polygon
     points="42.919,97.825 43.719,97.825 43.719,103.626 42.919,103.626 42.919,106.726 43.719,106.726 43.719,107.726 57.719,107.726 57.719,106.726 58.519,106.726 58.519,103.626 57.719,103.626 57.719,97.825 58.519,97.825 58.519,94.726 57.719,94.726 57.719,93.726 43.719,93.726 43.719,94.726 42.919,94.726 "
     style="fill:none;stroke:#000000;stroke-width:0.05266708mm"
     id="polygon4149"
     transform="matrix(0.97787614,0,0,0.97780483,1.1221003,2.2356301)" />
  <polygon
     points="19.107,97.825 19.907,97.825 19.907,103.626 19.107,103.626 19.107,106.726 19.907,106.726 19.907,107.726 33.907,107.726 33.907,106.726 34.707,106.726 34.707,103.626 33.907,103.626 33.907,97.825 34.707,97.825 34.707,94.726 33.907,94.726 33.907,93.726 19.907,93.726 19.907,94.726 19.107,94.726 "
     style="fill:none;stroke:#000000;stroke-width:0.05266708mm"
     id="polygon4151"
     transform="matrix(0.97787614,0,0,0.97780483,0.59528682,2.2356301)" />
  <path
     style="fill:none;stroke:#000000;stroke-width:0.0515mm"
     d="m 45.368145,88.304288 h 1.68739 v 0.958283 h 3.228053 v -0.958283 h 1.687391 V 82.17323 h 0.807014 v -2.737953 h -0.807014 v -3.158423 h -1.687391 v -0.899613 h -3.228053 v 0.899613 h -1.68739 l -2.4e-4,3.158423 H 43.279742 V 78.847595 H 44.0623 V 75.817269 H 43.279742 V 74.839428 H 29.584974 v 0.977841 h -0.782558 v 3.030326 h 0.782558 v 0.587682 h -2.1125 l -4.92e-4,-3.158423 h -1.687391 v -0.899613 h -3.228053 v 0.899613 h -1.687391 v 3.158423 h -0.807014 v 2.737953 h 0.807014 v 6.131058 h 1.687391 v 0.958283 h 3.228053 v -0.958283 h 1.687391 v -4.370945 h 2.112992 v 0.586703 h -0.782558 v 3.031304 h 0.782558 v 0.977841 H 43.279742 V 87.55135 H 44.0623 v -3.031304 h -0.782558 v -0.586703 h 2.088147 z"
     id="path5343"
     inkscape:connector-curvature="0"
     sodipodi:nodetypes="ccccccccccccccccccccccccccccccccccccccccccccccccccccccccccccc" />
  <polygon
     points="302.476,78.775 303.276,78.775 303.276,84.576 302.476,84.576 302.476,87.676 303.276,87.676 303.276,88.676 317.276,88.676 317.276,87.676 318.076,87.676 318.076,84.576 317.276,84.576 317.276,78.775 318.076,78.775 318.076,75.676 317.276,75.676 317.276,74.676 303.276,74.676 303.276,75.676 302.476,75.676 "
     style="fill:none;stroke:#000000;stroke-width:0.05266708mm"
     id="polygon4155"
     transform="matrix(0.97787614,0,0,0.97780483,6.8645039,1.8128121)" />
  <polygon
     points="283.426,78.775 284.226,78.775 284.226,84.576 283.426,84.576 283.426,87.676 284.226,87.676 284.226,88.676 298.226,88.676 298.226,87.676 299.026,87.676 299.026,84.576 298.226,84.576 298.226,78.775 299.026,78.775 299.026,75.676 298.226,75.676 298.226,74.676 284.226,74.676 284.226,75.676 283.426,75.676 "
     style="fill:none;stroke:#000000;stroke-width:0.05266708mm"
     id="polygon4157"
     transform="matrix(0.97787614,0,0,0.97780483,6.4430448,1.8128121)" />
  <polygon
     points="257.232,78.775 258.032,78.775 258.032,84.576 257.232,84.576 257.232,87.676 258.032,87.676 258.032,88.676 272.032,88.676 272.032,87.676 272.832,87.676 272.832,84.576 272.032,84.576 272.032,78.775 272.832,78.775 272.832,75.676 272.032,75.676 272.032,74.676 258.032,74.676 258.032,75.676 257.232,75.676 "
     style="fill:none;stroke:#000000;stroke-width:0.05266708mm"
     id="polygon4159"
     transform="matrix(0.97787614,0,0,0.97780483,5.8635318,1.8128121)" />
  <polygon
     points="231.038,78.775 231.838,78.775 231.838,84.576 231.038,84.576 231.038,87.676 231.838,87.676 231.838,88.676 245.838,88.676 245.838,87.676 246.638,87.676 246.638,84.576 245.838,84.576 245.838,78.775 246.638,78.775 246.638,75.676 245.838,75.676 245.838,74.676 231.838,74.676 231.838,75.676 231.038,75.676 "
     style="fill:none;stroke:#000000;stroke-width:0.05266708mm"
     id="polygon4161"
     transform="matrix(0.97787614,0,0,0.97780483,5.2840199,1.8128121)" />
  <polygon
     points="211.988,78.775 212.788,78.775 212.788,84.576 211.988,84.576 211.988,87.676 212.788,87.676 212.788,88.676 226.788,88.676 226.788,87.676 227.588,87.676 227.588,84.576 226.788,84.576 226.788,78.775 227.588,78.775 227.588,75.676 226.788,75.676 226.788,74.676 212.788,74.676 212.788,75.676 211.988,75.676 "
     style="fill:none;stroke:#000000;stroke-width:0.05266708mm"
     id="polygon4163"
     transform="matrix(0.97787614,0,0,0.97780483,4.8625597,1.8128121)" />
  <polygon
     points="192.938,78.775 193.738,78.775 193.738,84.576 192.938,84.576 192.938,87.676 193.738,87.676 193.738,88.676 207.738,88.676 207.738,87.676 208.538,87.676 208.538,84.576 207.738,84.576 207.738,78.775 208.538,78.775 208.538,75.676 207.738,75.676 207.738,74.676 193.738,74.676 193.738,75.676 192.938,75.676 "
     style="fill:none;stroke:#000000;stroke-width:0.05266708mm"
     id="polygon4165"
     transform="matrix(0.97787614,0,0,0.97780483,4.4411005,1.8128121)" />
  <polygon
     points="173.888,78.775 174.688,78.775 174.688,84.576 173.888,84.576 173.888,87.676 174.688,87.676 174.688,88.676 188.688,88.676 188.688,87.676 189.488,87.676 189.488,84.576 188.688,84.576 188.688,78.775 189.488,78.775 189.488,75.676 188.688,75.676 188.688,74.676 174.688,74.676 174.688,75.676 173.888,75.676 "
     style="fill:none;stroke:#000000;stroke-width:0.05266708mm"
     id="polygon4167"
     transform="matrix(0.97787614,0,0,0.97780483,4.0196406,1.8128121)" />
  <polygon
     points="154.838,78.775 155.638,78.775 155.638,84.576 154.838,84.576 154.838,87.676 155.638,87.676 155.638,88.676 169.638,88.676 169.638,87.676 170.438,87.676 170.438,84.576 169.638,84.576 169.638,78.775 170.438,78.775 170.438,75.676 169.638,75.676 169.638,74.676 155.638,74.676 155.638,75.676 154.838,75.676 "
     style="fill:none;stroke:#000000;stroke-width:0.05266708mm"
     id="polygon4169"
     transform="matrix(0.97787614,0,0,0.97780483,3.598181,1.8128121)" />
  <polygon
     points="135.788,78.775 136.588,78.775 136.588,84.576 135.788,84.576 135.788,87.676 136.588,87.676 136.588,88.676 150.588,88.676 150.588,87.676 151.388,87.676 151.388,84.576 150.588,84.576 150.588,78.775 151.388,78.775 151.388,75.676 150.588,75.676 150.588,74.676 136.588,74.676 136.588,75.676 135.788,75.676 "
     style="fill:none;stroke:#000000;stroke-width:0.19898938;stroke-miterlimit:4;stroke-dasharray:none"
     id="polygon4171"
     transform="matrix(0.97787614,0,0,0.97780483,3.1767214,1.8128121)" />
  <polygon
     points="116.738,78.775 117.538,78.775 117.538,84.576 116.738,84.576 116.738,87.676 117.538,87.676 117.538,88.676 131.538,88.676 131.538,87.676 132.338,87.676 132.338,84.576 131.538,84.576 131.538,78.775 132.338,78.775 132.338,75.676 131.538,75.676 131.538,74.676 117.538,74.676 117.538,75.676 116.738,75.676 "
     style="fill:none;stroke:#000000;stroke-width:0.05266708mm"
     id="polygon4173"
     transform="matrix(0.97787614,0,0,0.97780483,2.7552618,1.8128121)" />
  <polygon
     points="97.688,78.775 98.488,78.775 98.488,84.576 97.688,84.576 97.688,87.676 98.488,87.676 98.488,88.676 112.488,88.676 112.488,87.676 113.288,87.676 113.288,84.576 112.488,84.576 112.488,78.775 113.288,78.775 113.288,75.676 112.488,75.676 112.488,74.676 98.488,74.676 98.488,75.676 97.688,75.676 "
     style="fill:none;stroke:#000000;stroke-width:0.05266708mm"
     id="polygon4175"
     transform="matrix(0.97787614,0,0,0.97780483,2.3338022,1.8128121)" />
  <polygon
     points="78.638,78.775 79.438,78.775 79.438,84.576 78.638,84.576 78.638,87.676 79.438,87.676 79.438,88.676 93.438,88.676 93.438,87.676 94.238,87.676 94.238,84.576 93.438,84.576 93.438,78.775 94.238,78.775 94.238,75.676 93.438,75.676 93.438,74.676 79.438,74.676 79.438,75.676 78.638,75.676 "
     style="fill:none;stroke:#000000;stroke-width:0.05266708mm"
     id="polygon4177"
     transform="matrix(0.97787614,0,0,0.97780483,1.9123425,1.8128121)" />
  <polygon
     points="59.588,78.775 60.388,78.775 60.388,84.576 59.588,84.576 59.588,87.676 60.388,87.676 60.388,88.676 74.388,88.676 74.388,87.676 75.188,87.676 75.188,84.576 74.388,84.576 74.388,78.775 75.188,78.775 75.188,75.676 74.388,75.676 74.388,74.676 60.388,74.676 60.388,75.676 59.588,75.676 "
     style="fill:none;stroke:#000000;stroke-width:0.05266708mm"
     id="polygon4179"
     transform="matrix(0.97787614,0,0,0.97780483,1.490883,1.8128121)" />
  <polygon
     points="302.476,59.726 303.276,59.726 303.276,65.526 302.476,65.526 302.476,68.626 303.276,68.626 303.276,69.626 317.276,69.626 317.276,68.626 318.076,68.626 318.076,65.526 317.276,65.526 317.276,59.726 318.076,59.726 318.076,56.626 317.276,56.626 317.276,55.626 303.276,55.626 303.276,56.626 302.476,56.626 "
     style="fill:none;stroke:#000000;stroke-width:0.05266708mm"
     id="polygon4183"
     transform="matrix(0.97787614,0,0,0.97780483,6.8645039,1.3899943)" />
  <polygon
     points="240.563,59.726 241.363,59.726 241.363,65.526 240.563,65.526 240.563,68.626 241.363,68.626 241.363,69.626 255.363,69.626 255.363,68.626 256.162,68.626 256.162,65.526 255.363,65.526 255.363,59.726 256.162,59.726 256.162,56.626 255.363,56.626 255.363,55.626 241.363,55.626 241.363,56.626 240.563,56.626 "
     style="fill:none;stroke:#000000;stroke-width:0.05266708mm"
     id="polygon4185"
     transform="matrix(0.9778761,0,0,0.97780483,5.494748,1.3899943)" />
  <polygon
     points="221.513,59.726 222.313,59.726 222.313,65.526 221.513,65.526 221.513,68.626 222.313,68.626 222.313,69.626 236.313,69.626 236.313,68.626 237.113,68.626 237.113,65.526 236.313,65.526 236.313,59.726 237.113,59.726 237.113,56.626 236.313,56.626 236.313,55.626 222.313,55.626 222.313,56.626 221.513,56.626 "
     style="fill:none;stroke:#000000;stroke-width:0.05266708mm"
     id="polygon4187"
     transform="matrix(0.97787614,0,0,0.97780483,5.0732893,1.3899943)" />
  <polygon
     points="202.463,59.726 203.263,59.726 203.263,65.526 202.463,65.526 202.463,68.626 203.263,68.626 203.263,69.626 217.263,69.626 217.263,68.626 218.063,68.626 218.063,65.526 217.263,65.526 217.263,59.726 218.063,59.726 218.063,56.626 217.263,56.626 217.263,55.626 203.263,55.626 203.263,56.626 202.463,56.626 "
     style="fill:none;stroke:#000000;stroke-width:0.05266708mm"
     id="polygon4189"
     transform="matrix(0.97787614,0,0,0.97780483,4.6518301,1.3899943)" />
  <polygon
     points="183.413,59.726 184.213,59.726 184.213,65.526 183.413,65.526 183.413,68.626 184.213,68.626 184.213,69.626 198.213,69.626 198.213,68.626 199.013,68.626 199.013,65.526 198.213,65.526 198.213,59.726 199.013,59.726 199.013,56.626 198.213,56.626 198.213,55.626 184.213,55.626 184.213,56.626 183.413,56.626 "
     style="fill:none;stroke:#000000;stroke-width:0.05266708mm"
     id="polygon4191"
     transform="matrix(0.97787614,0,0,0.97780483,4.2303705,1.3899943)" />
  <polygon
     points="164.363,59.726 165.163,59.726 165.163,65.526 164.363,65.526 164.363,68.626 165.163,68.626 165.163,69.626 179.163,69.626 179.163,68.626 179.963,68.626 179.963,65.526 179.163,65.526 179.163,59.726 179.963,59.726 179.963,56.626 179.163,56.626 179.163,55.626 165.163,55.626 165.163,56.626 164.363,56.626 "
     style="fill:none;stroke:#000000;stroke-width:0.05266708mm"
     id="polygon4193"
     transform="matrix(0.97787614,0,0,0.97780483,3.8089108,1.3899943)" />
  <polygon
     points="145.313,59.726 146.113,59.726 146.113,65.526 145.313,65.526 145.313,68.626 146.113,68.626 146.113,69.626 160.113,69.626 160.113,68.626 160.913,68.626 160.913,65.526 160.113,65.526 160.113,59.726 160.913,59.726 160.913,56.626 160.113,56.626 160.113,55.626 146.113,55.626 146.113,56.626 145.313,56.626 "
     style="fill:none;stroke:#000000;stroke-width:0.05266708mm"
     id="polygon4195"
     transform="matrix(0.97787614,0,0,0.97780483,3.3874513,1.3899943)" />
  <polygon
     points="126.263,59.726 127.063,59.726 127.063,65.526 126.263,65.526 126.263,68.626 127.063,68.626 127.063,69.626 141.063,69.626 141.063,68.626 141.863,68.626 141.863,65.526 141.063,65.526 141.063,59.726 141.863,59.726 141.863,56.626 141.063,56.626 141.063,55.626 127.063,55.626 127.063,56.626 126.263,56.626 "
     style="fill:none;stroke:#000000;stroke-width:0.05266708mm"
     id="polygon4197"
     transform="matrix(0.97787614,0,0,0.97780483,2.9659916,1.3899943)" />
  <polygon
     points="107.213,59.726 108.013,59.726 108.013,65.526 107.213,65.526 107.213,68.626 108.013,68.626 108.013,69.626 122.013,69.626 122.013,68.626 122.813,68.626 122.813,65.526 122.013,65.526 122.013,59.726 122.813,59.726 122.813,56.626 122.013,56.626 122.013,55.626 108.013,55.626 108.013,56.626 107.213,56.626 "
     style="fill:none;stroke:#000000;stroke-width:0.05266708mm"
     id="polygon4199"
     transform="matrix(0.97787614,0,0,0.97780483,2.544532,1.3899943)" />
  <polygon
     points="88.163,59.726 88.963,59.726 88.963,65.526 88.163,65.526 88.163,68.626 88.963,68.626 88.963,69.626 102.963,69.626 102.963,68.626 103.763,68.626 103.763,65.526 102.963,65.526 102.963,59.726 103.763,59.726 103.763,56.626 102.963,56.626 102.963,55.626 88.963,55.626 88.963,56.626 88.163,56.626 "
     style="fill:none;stroke:#000000;stroke-width:0.05266708mm"
     id="polygon4201"
     transform="matrix(0.97787614,0,0,0.97780483,2.1230724,1.3899943)" />
  <polygon
     points="69.113,59.726 69.913,59.726 69.913,65.526 69.113,65.526 69.113,68.626 69.913,68.626 69.913,69.626 83.913,69.626 83.913,68.626 84.713,68.626 84.713,65.526 83.913,65.526 83.913,59.726 84.713,59.726 84.713,56.626 83.913,56.626 83.913,55.626 69.913,55.626 69.913,56.626 69.113,56.626 "
     style="fill:none;stroke:#000000;stroke-width:0.05266708mm"
     id="polygon4203"
     transform="matrix(0.97787614,0,0,0.97780483,1.7016128,1.3899943)" />
  <polygon
     points="50.063,59.726 50.863,59.726 50.863,65.526 50.063,65.526 50.063,68.626 50.863,68.626 50.863,69.626 64.862,69.626 64.862,68.626 65.663,68.626 65.663,65.526 64.862,65.526 64.862,59.726 65.663,59.726 65.663,56.626 64.862,56.626 64.862,55.626 50.863,55.626 50.863,56.626 50.063,56.626 "
     style="fill:none;stroke:#000000;stroke-width:0.05266708mm"
     id="polygon4205"
     transform="matrix(0.97787614,0,0,0.97780483,1.2801531,1.3899943)" />
  <polygon
     points="23.869,59.726 24.669,59.726 24.669,65.526 23.869,65.526 23.869,68.626 24.669,68.626 24.669,69.626 38.669,69.626 38.669,68.626 39.469,68.626 39.469,65.526 38.669,65.526 38.669,59.726 39.469,59.726 39.469,56.626 38.669,56.626 38.669,55.626 24.669,55.626 24.669,56.626 23.869,56.626 "
     style="fill:none;stroke:#000000;stroke-width:0.05266708mm"
     id="polygon4207"
     transform="matrix(0.97787614,0,0,0.97780483,0.70064065,1.3899943)" />
  <polygon
     points="9.002,62.302 8.95,62.626 9.002,62.95 9.151,63.243 9.383,63.475 9.676,63.625 10,63.676 10.325,63.625 10.618,63.475 10.85,63.243 10.999,62.95 11.05,62.626 10.999,62.302 10.85,62.009 10.618,61.777 10.325,61.627 10,61.576 9.676,61.627 9.383,61.777 9.151,62.009 "
     style="fill:none;stroke:#000000;stroke-width:0.04296766mm"
     id="polygon4209"
     transform="matrix(1.2567612,0,0,1.2567571,-2.5676102,-16.079672)" />
  <polygon
     points="323.803,62.302 323.752,62.626 323.803,62.95 323.952,63.243 324.184,63.475 324.477,63.625 324.802,63.676 325.126,63.625 325.419,63.475 325.651,63.243 325.8,62.95 325.852,62.626 325.8,62.302 325.651,62.009 325.419,61.777 325.126,61.627 324.802,61.576 324.477,61.627 324.184,61.777 323.952,62.009 "
     style="fill:none;stroke:#000000;stroke-width:0.04296766mm"
     id="polygon4211"
     transform="matrix(1.2567612,0,0,1.2567571,-83.396556,-16.079672)" />
  <polygon
     points="302.476,40.676 303.276,40.676 303.276,46.476 302.476,46.476 302.476,49.576 303.276,49.576 303.276,50.576 317.276,50.576 317.276,49.576 318.076,49.576 318.076,46.476 317.276,46.476 317.276,40.676 318.076,40.676 318.076,37.576 317.276,37.576 317.276,36.576 303.276,36.576 303.276,37.576 302.476,37.576 "
     style="fill:none;stroke:#000000;stroke-width:0.05266708mm"
     id="polygon4213"
     transform="matrix(0.97787614,0,0,0.97780483,6.8645039,0.96717641)" />
  <polygon
     points="278.663,40.676 279.463,40.676 279.463,46.476 278.663,46.476 278.663,49.576 279.463,49.576 279.463,50.576 293.463,50.576 293.463,49.576 294.263,49.576 294.263,46.476 293.463,46.476 293.463,40.676 294.263,40.676 294.263,37.576 293.463,37.576 293.463,36.576 279.463,36.576 279.463,37.576 278.663,37.576 "
     style="fill:none;stroke:#000000;stroke-width:0.05266708mm"
     id="polygon4215"
     transform="matrix(0.97787614,0,0,0.97780483,6.3376687,0.96717641)" />
  <polygon
     points="254.851,40.676 255.651,40.676 255.651,46.476 254.851,46.476 254.851,49.576 255.651,49.576 255.651,50.576 269.651,50.576 269.651,49.576 270.451,49.576 270.451,46.476 269.651,46.476 269.651,40.676 270.451,40.676 270.451,37.576 269.651,37.576 269.651,36.576 255.651,36.576 255.651,37.576 254.851,37.576 "
     style="fill:none;stroke:#000000;stroke-width:0.05266708mm"
     id="polygon4217"
     transform="matrix(0.97787614,0,0,0.97780483,5.8108551,0.96717641)" />
  <polygon
     points="235.801,40.676 236.601,40.676 236.601,46.476 235.801,46.476 235.801,49.576 236.601,49.576 236.601,50.576 250.601,50.576 250.601,49.576 251.401,49.576 251.401,46.476 250.601,46.476 250.601,40.676 251.401,40.676 251.401,37.576 250.601,37.576 250.601,36.576 236.601,36.576 236.601,37.576 235.801,37.576 "
     style="fill:none;stroke:#000000;stroke-width:0.05266708mm"
     id="polygon4219"
     transform="matrix(0.97787614,0,0,0.97780483,5.3893959,0.96717641)" />
  <polygon
     points="216.751,40.676 217.551,40.676 217.551,46.476 216.751,46.476 216.751,49.576 217.551,49.576 217.551,50.576 231.551,50.576 231.551,49.576 232.351,49.576 232.351,46.476 231.551,46.476 231.551,40.676 232.351,40.676 232.351,37.576 231.551,37.576 231.551,36.576 217.551,36.576 217.551,37.576 216.751,37.576 "
     style="fill:none;stroke:#000000;stroke-width:0.05266708mm"
     id="polygon4221"
     transform="matrix(0.97787614,0,0,0.97780483,4.9679357,0.96717641)" />
  <polygon
     points="197.701,40.676 198.501,40.676 198.501,46.476 197.701,46.476 197.701,49.576 198.501,49.576 198.501,50.576 212.501,50.576 212.501,49.576 213.301,49.576 213.301,46.476 212.501,46.476 212.501,40.676 213.301,40.676 213.301,37.576 212.501,37.576 212.501,36.576 198.501,36.576 198.501,37.576 197.701,37.576 "
     style="fill:none;stroke:#000000;stroke-width:0.05266708mm"
     id="polygon4223"
     transform="matrix(0.97787614,0,0,0.97780483,4.5464766,0.96717641)" />
  <polygon
     points="178.651,40.676 179.451,40.676 179.451,46.476 178.651,46.476 178.651,49.576 179.451,49.576 179.451,50.576 193.451,50.576 193.451,49.576 194.251,49.576 194.251,46.476 193.451,46.476 193.451,40.676 194.251,40.676 194.251,37.576 193.451,37.576 193.451,36.576 179.451,36.576 179.451,37.576 178.651,37.576 "
     style="fill:none;stroke:#000000;stroke-width:0.05266708mm"
     id="polygon4225"
     transform="matrix(0.97787614,0,0,0.97780483,4.1250166,0.96717641)" />
  <polygon
     points="159.601,40.676 160.401,40.676 160.401,46.476 159.601,46.476 159.601,49.576 160.401,49.576 160.401,50.576 174.401,50.576 174.401,49.576 175.201,49.576 175.201,46.476 174.401,46.476 174.401,40.676 175.201,40.676 175.201,37.576 174.401,37.576 174.401,36.576 160.401,36.576 160.401,37.576 159.601,37.576 "
     style="fill:none;stroke:#000000;stroke-width:0.05266708mm"
     id="polygon4227"
     transform="matrix(0.97787614,0,0,0.97780483,3.703557,0.96717641)" />
  <polygon
     points="140.551,40.676 141.351,40.676 141.351,46.476 140.551,46.476 140.551,49.576 141.351,49.576 141.351,50.576 155.351,50.576 155.351,49.576 156.151,49.576 156.151,46.476 155.351,46.476 155.351,40.676 156.151,40.676 156.151,37.576 155.351,37.576 155.351,36.576 141.351,36.576 141.351,37.576 140.551,37.576 "
     style="fill:none;stroke:#000000;stroke-width:0.05266708mm"
     id="polygon4229"
     transform="matrix(0.97787614,0,0,0.97780483,3.2820973,0.96717641)" />
  <polygon
     points="121.501,40.676 122.301,40.676 122.301,46.476 121.501,46.476 121.501,49.576 122.301,49.576 122.301,50.576 136.301,50.576 136.301,49.576 137.101,49.576 137.101,46.476 136.301,46.476 136.301,40.676 137.101,40.676 137.101,37.576 136.301,37.576 136.301,36.576 122.301,36.576 122.301,37.576 121.501,37.576 "
     style="fill:none;stroke:#000000;stroke-width:0.05266708mm"
     id="polygon4231"
     transform="matrix(0.97787614,0,0,0.97780483,2.8606378,0.96717641)" />
  <polygon
     points="102.451,40.676 103.251,40.676 103.251,46.476 102.451,46.476 102.451,49.576 103.251,49.576 103.251,50.576 117.251,50.576 117.251,49.576 118.051,49.576 118.051,46.476 117.251,46.476 117.251,40.676 118.051,40.676 118.051,37.576 117.251,37.576 117.251,36.576 103.251,36.576 103.251,37.576 102.451,37.576 "
     style="fill:none;stroke:#000000;stroke-width:0.05266708mm"
     id="polygon4233"
     transform="matrix(0.97787614,0,0,0.97780483,2.4391781,0.96717641)" />
  <polygon
     points="83.401,40.676 84.201,40.676 84.201,46.476 83.401,46.476 83.401,49.576 84.201,49.576 84.201,50.576 98.201,50.576 98.201,49.576 99.001,49.576 99.001,46.476 98.201,46.476 98.201,40.676 99.001,40.676 99.001,37.576 98.201,37.576 98.201,36.576 84.201,36.576 84.201,37.576 83.401,37.576 "
     style="fill:none;stroke:#000000;stroke-width:0.05266708mm"
     id="polygon4235"
     transform="matrix(0.97787614,0,0,0.97780483,2.0177186,0.96717641)" />
  <polygon
     points="64.35,40.676 65.151,40.676 65.151,46.476 64.35,46.476 64.35,49.576 65.151,49.576 65.151,50.576 79.151,50.576 79.151,49.576 79.951,49.576 79.951,46.476 79.151,46.476 79.151,40.676 79.951,40.676 79.951,37.576 79.151,37.576 79.151,36.576 65.151,36.576 65.151,37.576 64.35,37.576 "
     style="fill:none;stroke:#000000;stroke-width:0.05266708mm"
     id="polygon4237"
     transform="matrix(0.97787618,0,0,0.97780483,1.596245,0.96717641)" />
  <polygon
     points="45.301,40.676 46.101,40.676 46.101,46.476 45.301,46.476 45.301,49.576 46.101,49.576 46.101,50.576 60.101,50.576 60.101,49.576 60.901,49.576 60.901,46.476 60.101,46.476 60.101,40.676 60.901,40.676 60.901,37.576 60.101,37.576 60.101,36.576 46.101,36.576 46.101,37.576 45.301,37.576 "
     style="fill:none;stroke:#000000;stroke-width:0.05266708mm"
     id="polygon4239"
     transform="matrix(0.97787614,0,0,0.97780483,1.1747993,0.96717641)" />
  <polygon
     points="21.488,40.676 22.288,40.676 22.288,46.476 21.488,46.476 21.488,49.576 22.288,49.576 22.288,50.576 36.288,50.576 36.288,49.576 37.088,49.576 37.088,46.476 36.288,46.476 36.288,40.676 37.088,40.676 37.088,37.576 36.288,37.576 36.288,36.576 22.288,36.576 22.288,37.576 21.488,37.576 "
     style="fill:none;stroke:#000000;stroke-width:0.05266708mm"
     id="polygon4241"
     transform="matrix(0.97787614,0,0,0.97780483,0.64796378,0.96717641)" />
  <polygon
     points="302.476,21.626 303.276,21.626 303.276,27.425 302.476,27.425 302.476,30.526 303.276,30.526 303.276,31.526 317.276,31.526 317.276,30.526 318.076,30.526 318.076,27.425 317.276,27.425 317.276,21.626 318.076,21.626 318.076,18.526 317.276,18.526 317.276,17.526 303.276,17.526 303.276,18.526 302.476,18.526 "
     style="fill:none;stroke:#000000;stroke-width:0.05266708mm"
     id="polygon4245"
     transform="matrix(0.97787614,0,0,0.97780483,6.8645039,0.54435859)" />
  <polygon
     points="245.326,21.626 246.126,21.626 246.126,27.425 245.326,27.425 245.326,30.526 246.126,30.526 246.126,31.526 260.126,31.526 260.126,30.526 260.926,30.526 260.926,27.425 260.126,27.425 260.126,21.626 260.926,21.626 260.926,18.526 260.126,18.526 260.126,17.526 246.126,17.526 246.126,18.526 245.326,18.526 "
     style="fill:none;stroke:#000000;stroke-width:0.05266708mm"
     id="polygon4247"
     transform="matrix(0.97787614,0,0,0.97780483,5.6001255,0.54435859)" />
  <polygon
     points="226.276,21.626 227.076,21.626 227.076,27.425 226.276,27.425 226.276,30.526 227.076,30.526 227.076,31.526 241.076,31.526 241.076,30.526 241.876,30.526 241.876,27.425 241.076,27.425 241.076,21.626 241.876,21.626 241.876,18.526 241.076,18.526 241.076,17.526 227.076,17.526 227.076,18.526 226.276,18.526 "
     style="fill:none;stroke:#000000;stroke-width:0.05266708mm"
     id="polygon4249"
     transform="matrix(0.97787614,0,0,0.97780483,5.1786653,0.54435859)" />
  <polygon
     points="207.226,21.626 208.026,21.626 208.026,27.425 207.226,27.425 207.226,30.526 208.026,30.526 208.026,31.526 222.026,31.526 222.026,30.526 222.826,30.526 222.826,27.425 222.026,27.425 222.026,21.626 222.826,21.626 222.826,18.526 222.026,18.526 222.026,17.526 208.026,17.526 208.026,18.526 207.226,18.526 "
     style="fill:none;stroke:#000000;stroke-width:0.05266708mm"
     id="polygon4251"
     transform="matrix(0.97787614,0,0,0.97780483,4.7572062,0.54435859)" />
  <polygon
     points="188.176,21.626 188.976,21.626 188.976,27.425 188.176,27.425 188.176,30.526 188.976,30.526 188.976,31.526 202.976,31.526 202.976,30.526 203.776,30.526 203.776,27.425 202.976,27.425 202.976,21.626 203.776,21.626 203.776,18.526 202.976,18.526 202.976,17.526 188.976,17.526 188.976,18.526 188.176,18.526 "
     style="fill:none;stroke:#000000;stroke-width:0.05266708mm"
     id="polygon4253"
     transform="matrix(0.97787614,0,0,0.97780483,4.3357464,0.54435859)" />
  <polygon
     points="169.126,21.626 169.926,21.626 169.926,27.425 169.126,27.425 169.126,30.526 169.926,30.526 169.926,31.526 183.926,31.526 183.926,30.526 184.726,30.526 184.726,27.425 183.926,27.425 183.926,21.626 184.726,21.626 184.726,18.526 183.926,18.526 183.926,17.526 169.926,17.526 169.926,18.526 169.126,18.526 "
     style="fill:none;stroke:#000000;stroke-width:0.05266708mm"
     id="polygon4255"
     transform="matrix(0.97787614,0,0,0.97780483,3.9142868,0.54435859)" />
  <polygon
     points="150.076,21.626 150.876,21.626 150.876,27.425 150.076,27.425 150.076,30.526 150.876,30.526 150.876,31.526 164.876,31.526 164.876,30.526 165.676,30.526 165.676,27.425 164.876,27.425 164.876,21.626 165.676,21.626 165.676,18.526 164.876,18.526 164.876,17.526 150.876,17.526 150.876,18.526 150.076,18.526 "
     style="fill:none;stroke:#000000;stroke-width:0.05266708mm"
     id="polygon4257"
     transform="matrix(0.97787614,0,0,0.97780483,3.4928272,0.54435859)" />
  <polygon
     points="131.025,21.626 131.826,21.626 131.826,27.425 131.025,27.425 131.025,30.526 131.826,30.526 131.826,31.526 145.826,31.526 145.826,30.526 146.626,30.526 146.626,27.425 145.826,27.425 145.826,21.626 146.626,21.626 146.626,18.526 145.826,18.526 145.826,17.526 131.826,17.526 131.826,18.526 131.025,18.526 "
     style="fill:none;stroke:#000000;stroke-width:0.05266708mm"
     id="polygon4259"
     transform="matrix(0.97787618,0,0,0.97780483,3.0713509,0.54435859)" />
  <polygon
     points="111.976,21.626 112.775,21.626 112.775,27.425 111.976,27.425 111.976,30.526 112.775,30.526 112.775,31.526 126.775,31.526 126.775,30.526 127.575,30.526 127.575,27.425 126.775,27.425 126.775,21.626 127.575,21.626 127.575,18.526 126.775,18.526 126.775,17.526 112.775,17.526 112.775,18.526 111.976,18.526 "
     style="fill:none;stroke:#000000;stroke-width:0.05266708mm"
     id="polygon4261"
     transform="matrix(0.9778761,0,0,0.97780483,2.6499017,0.54435859)" />
  <polygon
     points="92.926,21.626 93.726,21.626 93.726,27.425 92.926,27.425 92.926,30.526 93.726,30.526 93.726,31.526 107.726,31.526 107.726,30.526 108.525,30.526 108.525,27.425 107.726,27.425 107.726,21.626 108.525,21.626 108.525,18.526 107.726,18.526 107.726,17.526 93.726,17.526 93.726,18.526 92.926,18.526 "
     style="fill:none;stroke:#000000;stroke-width:0.05266708mm"
     id="polygon4263"
     transform="matrix(0.9778761,0,0,0.97780483,2.2284413,0.54435859)" />
  <polygon
     points="73.876,21.626 74.676,21.626 74.676,27.425 73.876,27.425 73.876,30.526 74.676,30.526 74.676,31.526 88.676,31.526 88.676,30.526 89.476,30.526 89.476,27.425 88.676,27.425 88.676,21.626 89.476,21.626 89.476,18.526 88.676,18.526 88.676,17.526 74.676,17.526 74.676,18.526 73.876,18.526 "
     style="fill:none;stroke:#000000;stroke-width:0.05266708mm"
     id="polygon4265"
     transform="matrix(0.97787614,0,0,0.97780483,1.8069887,0.54435859)" />
  <polygon
     points="54.826,21.626 55.626,21.626 55.626,27.425 54.826,27.425 54.826,30.526 55.626,30.526 55.626,31.526 69.626,31.526 69.626,30.526 70.426,30.526 70.426,27.425 69.626,27.425 69.626,21.626 70.426,21.626 70.426,18.526 69.626,18.526 69.626,17.526 55.626,17.526 55.626,18.526 54.826,18.526 "
     style="fill:none;stroke:#000000;stroke-width:0.05266708mm"
     id="polygon4267"
     transform="matrix(0.97787614,0,0,0.97780483,1.3855292,0.54435859)" />
  <polygon
     points="35.776,21.626 36.576,21.626 36.576,27.425 35.776,27.425 35.776,30.526 36.576,30.526 36.576,31.526 50.576,31.526 50.576,30.526 51.376,30.526 51.376,27.425 50.576,27.425 50.576,21.626 51.376,21.626 51.376,18.526 50.576,18.526 50.576,17.526 36.576,17.526 36.576,18.526 35.776,18.526 "
     style="fill:none;stroke:#000000;stroke-width:0.05266708mm"
     id="polygon4269"
     transform="matrix(0.97787614,0,0,0.97780483,0.96406951,0.54435859)" />
  <polygon
     points="16.725,21.626 17.526,21.626 17.526,27.425 16.725,27.425 16.725,30.526 17.526,30.526 17.526,31.526 31.526,31.526 31.526,30.526 32.324,30.526 32.324,27.425 31.526,27.425 31.526,21.626 32.324,21.626 32.324,18.526 31.526,18.526 31.526,17.526 17.526,17.526 17.526,18.526 16.725,18.526 "
     style="fill:none;stroke:#000000;stroke-width:0.05266708mm"
     id="polygon4271"
     transform="matrix(0.9778761,0,0,0.97780483,0.54257771,0.54435859)" />
  <polygon
     points="9.151,9.383 9.002,9.676 8.95,10.001 9.002,10.325 9.151,10.618 9.383,10.85 9.676,10.999 10,11.051 10.325,10.999 10.618,10.85 10.85,10.618 10.999,10.325 11.05,10.001 10.999,9.676 10.85,9.383 10.618,9.151 10.325,9.002 10,8.951 9.676,9.002 9.383,9.151 "
     style="fill:none;stroke:#000000;stroke-width:0.04296761mm"
     id="polygon4273"
     transform="matrix(1.1636673,0,0,1.1636673,-1.6366727,-1.6368363)" />
  <polygon
     points="323.803,9.676 323.752,10.001 323.803,10.325 323.952,10.618 324.184,10.85 324.477,10.999 324.802,11.051 325.126,10.999 325.419,10.85 325.651,10.618 325.8,10.325 325.852,10.001 325.8,9.676 325.651,9.383 325.419,9.151 325.126,9.002 324.802,8.951 324.477,9.002 324.184,9.151 323.952,9.383 "
     style="fill:none;stroke:#000000;stroke-width:0.04296761mm"
     id="polygon4275"
     transform="matrix(1.2567607,0,0,1.2567607,-83.396374,-2.5678651)" />
  <polygon
     points="245.103,9.676 245.051,10.001 245.103,10.325 245.252,10.618 245.484,10.85 245.777,10.999 246.101,11.051 246.426,10.999 246.718,10.85 246.951,10.618 247.1,10.325 247.151,10.001 247.1,9.676 246.951,9.383 246.718,9.151 246.426,9.002 246.101,8.951 245.777,9.002 245.484,9.151 245.252,9.383 "
     style="fill:none;stroke:#000000;stroke-width:0.04296761mm"
     id="polygon4277"
     transform="matrix(1.2567607,0,0,1.2567607,-63.189051,-2.5678651)" />
  <polygon
     points="87.702,9.676 87.651,10.001 87.702,10.325 87.851,10.618 88.084,10.85 88.376,10.999 88.701,11.051 89.025,10.999 89.318,10.85 89.55,10.618 89.699,10.325 89.751,10.001 89.699,9.676 89.55,9.383 89.318,9.151 89.025,9.002 88.701,8.951 88.376,9.002 88.084,9.151 87.851,9.383 "
     style="fill:none;stroke:#000000;stroke-width:0.04296761mm"
     id="polygon4281"
     transform="matrix(1.2567607,0,0,1.2567607,-22.774928,-2.5678651)" />
  <path
     style="fill:none;stroke:#000000;stroke-width:0.04892476mm"
     d="m 194.21309,102.51197 v 4.88573 h 1.68791 v 0.9599 h 3.22904 v -0.9599 h 1.68792 v -6.13417 h 0.80726 v -2.739777 h -0.80726 v -3.160528 h -1.68792 V 94.462034 H 195.901 v 0.901191 h -1.68791 l -4.7e-4,3.675646 -41.34755,-1.18e-4 V 97.93568 h 0.7828 v -3.032346 h -0.7828 v -0.978492 h -13.69898 v 0.978492 h -0.7828 v 3.032346 h 0.7828 v 1.103073 l -41.349633,-4.15e-4 0.0016,-3.675113 h -1.687908 v -0.901191 h -3.229046 v 0.901191 h -1.687947 v 3.160528 h -0.807262 v 2.739777 h 0.807262 v 6.13417 h 1.687911 v 0.9599 h 3.229046 v -0.9599 h 1.687908 l -0.0016,-4.88845 41.349629,-10e-4 v 1.10372 h -0.7828 v 3.03332 h 0.7828 v 0.9785 h 13.69898 v -0.9785 h 0.7828 v -3.03332 h -0.7828 v -1.10311 h 41.29319"
     id="polygon4133-6"
     inkscape:connector-curvature="0"
     sodipodi:nodetypes="ccccccccccccccccccccccccccccccccccccccccccccccccccccccccccccc" />
  <path
     style="fill:none;stroke:#000000;stroke-width:0.0515mm"
     d="m 290.63689,31.14603 h 1.6874 v 0.958283 h 3.22805 V 31.14603 h 1.68739 v -6.131057 h 0.80701 v -2.737954 h -0.80701 v -3.158422 h -1.68739 v -0.899613 h -3.22805 v 0.899613 h -1.6874 l -2.3e-4,3.158422 h -2.08816 v -0.587681 h 0.78255 v -3.030326 h -0.78255 v -0.977841 h -13.69477 v 0.977841 h -0.78256 v 3.030326 h 0.78256 v 0.587681 h -2.1125 l -4.9e-4,-3.158422 h -1.6874 v -0.899613 h -3.22805 v 0.899613 h -1.68739 v 3.158422 h -0.80701 v 2.737954 h 0.80701 v 6.131057 h 1.68739 v 0.958283 h 3.22805 V 31.14603 h 1.6874 v -4.370945 h 2.11299 v 0.586704 h -0.78256 v 3.031303 h 0.78256 v 0.977841 h 13.69477 v -0.977841 h 0.78255 v -3.031303 h -0.78255 v -0.586704 h 2.08815 z"
     id="path5343-5"
     inkscape:connector-curvature="0"
     sodipodi:nodetypes="ccccccccccccccccccccccccccccccccccccccccccccccccccccccccccccc" />
  <path
     style="fill:none;stroke:#000000;stroke-width:0.0515mm"
     d="m 288.25564,69.248676 h 1.6874 v 0.958283 h 3.22805 v -0.958283 h 1.68739 v -6.131057 h 0.80701 v -2.737953 h -0.80701 v -3.158423 h -1.68739 V 56.32163 h -3.22805 v 0.899613 h -1.6874 l -2.3e-4,3.158423 h -2.08816 v -0.587682 h 0.78255 v -3.030326 h -0.78255 v -0.977841 h -13.69477 v 0.977841 h -0.78256 v 3.030326 h 0.78256 v 0.587682 h -2.1125 l -4.9e-4,-3.158423 h -1.6874 V 56.32163 h -3.22805 v 0.899613 h -1.68739 v 3.158423 h -0.80701 v 2.737953 h 0.80701 v 6.131057 h 1.68739 v 0.958283 h 3.22805 v -0.958283 h 1.6874 v -4.370944 h 2.11299 v 0.586703 h -0.78256 v 3.031303 h 0.78256 v 0.977841 h 13.69477 v -0.977841 h 0.78255 v -3.031303 h -0.78255 v -0.586703 h 2.08815 z"
     id="path5343-5-3"
     inkscape:connector-curvature="0"
     sodipodi:nodetypes="ccccccccccccccccccccccccccccccccccccccccccccccccccccccccccccc" />
  <polygon
     points="10.999,9.676 10.85,9.383 10.618,9.151 10.325,9.002 10,8.951 9.676,9.002 9.383,9.151 9.151,9.383 9.002,9.676 8.95,10.001 9.002,10.325 9.151,10.618 9.383,10.85 9.676,10.999 10,11.051 10.325,10.999 10.618,10.85 10.85,10.618 10.999,10.325 11.05,10.001 "
     style="fill:none;stroke:#000000;stroke-width:0.04296761mm"
     id="polygon4273-3"
     transform="matrix(1.2567607,0,0,1.2567607,-2.6140563,-2.5678657)" />
</svg>
