EESchema Schematic File Version 4
EELAYER 30 0
EELAYER END
$Descr A4 11693 8268
encoding utf-8
Sheet 1 2
Title "QAZ Numpad Main"
Date "2020-01-25"
Rev "v0.1"
Comp "Anthony Needles"
Comment1 ""
Comment2 ""
Comment3 ""
Comment4 ""
$EndDescr
$Comp
L Device:C C1
U 1 1 5E2DA5D9
P 1650 1500
F 0 "C1" H 1535 1454 50  0000 R CNN
F 1 "100nF" H 1535 1545 50  0000 R CNN
F 2 "Capacitor_SMD:C_0603_1608Metric_Pad1.05x0.95mm_HandSolder" H 1688 1350 50  0001 C CNN
F 3 "~" H 1650 1500 50  0001 C CNN
	1    1650 1500
	-1   0    0    1   
$EndComp
$Comp
L Device:C C6
U 1 1 5E2DAC7A
P 2150 1500
F 0 "C6" H 2035 1454 50  0000 R CNN
F 1 "100nF" H 2035 1545 50  0000 R CNN
F 2 "Capacitor_SMD:C_0603_1608Metric_Pad1.05x0.95mm_HandSolder" H 2188 1350 50  0001 C CNN
F 3 "~" H 2150 1500 50  0001 C CNN
	1    2150 1500
	-1   0    0    1   
$EndComp
$Comp
L Device:C C8
U 1 1 5E2DACAE
P 2600 1500
F 0 "C8" H 2485 1454 50  0000 R CNN
F 1 "100nF" H 2485 1545 50  0000 R CNN
F 2 "Capacitor_SMD:C_0603_1608Metric_Pad1.05x0.95mm_HandSolder" H 2638 1350 50  0001 C CNN
F 3 "~" H 2600 1500 50  0001 C CNN
	1    2600 1500
	-1   0    0    1   
$EndComp
Wire Wire Line
	1650 1350 2150 1350
Connection ~ 2150 1350
Wire Wire Line
	1650 1650 2150 1650
Connection ~ 2150 1650
$Comp
L power:GND #PWR05
U 1 1 5E2DB42F
P 1650 1650
F 0 "#PWR05" H 1650 1400 50  0001 C CNN
F 1 "GND" H 1655 1477 50  0001 C CNN
F 2 "" H 1650 1650 50  0001 C CNN
F 3 "" H 1650 1650 50  0001 C CNN
	1    1650 1650
	1    0    0    -1  
$EndComp
Connection ~ 1650 1650
$Comp
L power:+3.3V #PWR04
U 1 1 5E2DB7FD
P 1650 1350
F 0 "#PWR04" H 1650 1200 50  0001 C CNN
F 1 "+3.3V" H 1665 1523 50  0000 C CNN
F 2 "" H 1650 1350 50  0001 C CNN
F 3 "" H 1650 1350 50  0001 C CNN
	1    1650 1350
	1    0    0    -1  
$EndComp
Connection ~ 1650 1350
$Comp
L Device:R_Small_US R3
U 1 1 5E2DED31
P 3600 2650
F 0 "R3" H 3750 2600 50  0000 R CNN
F 1 "10k" H 3800 2700 50  0000 R CNN
F 2 "Resistor_SMD:R_0603_1608Metric_Pad1.05x0.95mm_HandSolder" H 3600 2650 50  0001 C CNN
F 3 "~" H 3600 2650 50  0001 C CNN
F 4 "DNP" H 3550 2650 50  0000 R CNN "Comment"
	1    3600 2650
	-1   0    0    1   
$EndComp
$Comp
L Device:R_Small_US R4
U 1 1 5E2DEDBB
P 3600 2950
F 0 "R4" H 3750 2900 50  0000 R CNN
F 1 "10k" H 3800 3000 50  0000 R CNN
F 2 "Resistor_SMD:R_0603_1608Metric_Pad1.05x0.95mm_HandSolder" H 3600 2950 50  0001 C CNN
F 3 "~" H 3600 2950 50  0001 C CNN
	1    3600 2950
	-1   0    0    1   
$EndComp
$Comp
L power:GND #PWR014
U 1 1 5E2DF23D
P 3600 3050
F 0 "#PWR014" H 3600 2800 50  0001 C CNN
F 1 "GND" H 3605 2877 50  0001 C CNN
F 2 "" H 3600 3050 50  0001 C CNN
F 3 "" H 3600 3050 50  0001 C CNN
	1    3600 3050
	1    0    0    -1  
$EndComp
$Comp
L power:+3.3V #PWR013
U 1 1 5E2DF2F4
P 3600 2550
F 0 "#PWR013" H 3600 2400 50  0001 C CNN
F 1 "+3.3V" H 3600 2700 50  0000 C CNN
F 2 "" H 3600 2550 50  0001 C CNN
F 3 "" H 3600 2550 50  0001 C CNN
	1    3600 2550
	1    0    0    -1  
$EndComp
Wire Wire Line
	3600 2800 3600 2850
Wire Wire Line
	3600 2800 3600 2750
Connection ~ 3600 2800
$Comp
L Regulator_Linear:AP2112K-3.3 U1
U 1 1 5E2E3AE6
P 3350 6750
F 0 "U1" H 3350 7092 50  0000 C CNN
F 1 "AP2112K-3.3" H 3350 7000 50  0000 C CNN
F 2 "Package_TO_SOT_SMD:SOT-23-5" H 3350 7075 50  0001 C CNN
F 3 "https://www.diodes.com/assets/Datasheets/AP2112.pdf" H 3350 6850 50  0001 C CNN
	1    3350 6750
	1    0    0    -1  
$EndComp
$Comp
L power:GND #PWR012
U 1 1 5E2E44CE
P 3350 7050
F 0 "#PWR012" H 3350 6800 50  0001 C CNN
F 1 "GND" H 3355 6877 50  0001 C CNN
F 2 "" H 3350 7050 50  0001 C CNN
F 3 "" H 3350 7050 50  0001 C CNN
	1    3350 7050
	1    0    0    -1  
$EndComp
$Comp
L power:+5V #PWR06
U 1 1 5E2E60AF
P 1800 6650
F 0 "#PWR06" H 1800 6500 50  0001 C CNN
F 1 "+5V" H 1815 6823 50  0000 C CNN
F 2 "" H 1800 6650 50  0001 C CNN
F 3 "" H 1800 6650 50  0001 C CNN
	1    1800 6650
	1    0    0    -1  
$EndComp
$Comp
L power:+3.3V #PWR020
U 1 1 5E2E9413
P 4350 6650
F 0 "#PWR020" H 4350 6500 50  0001 C CNN
F 1 "+3.3V" H 4365 6823 50  0000 C CNN
F 2 "" H 4350 6650 50  0001 C CNN
F 3 "" H 4350 6650 50  0001 C CNN
	1    4350 6650
	1    0    0    -1  
$EndComp
$Comp
L Device:C C7
U 1 1 5E2EA441
P 2300 6800
F 0 "C7" H 2550 6750 50  0000 R CNN
F 1 "1uF" H 2550 6850 50  0000 R CNN
F 2 "Capacitor_SMD:C_0603_1608Metric_Pad1.05x0.95mm_HandSolder" H 2338 6650 50  0001 C CNN
F 3 "~" H 2300 6800 50  0001 C CNN
	1    2300 6800
	-1   0    0    1   
$EndComp
Wire Wire Line
	2450 6650 2300 6650
$Comp
L power:GND #PWR09
U 1 1 5E2EEDD8
P 2300 6950
F 0 "#PWR09" H 2300 6700 50  0001 C CNN
F 1 "GND" H 2305 6777 50  0001 C CNN
F 2 "" H 2300 6950 50  0001 C CNN
F 3 "" H 2300 6950 50  0001 C CNN
	1    2300 6950
	1    0    0    -1  
$EndComp
$Comp
L Device:C C11
U 1 1 5E2EEF35
P 3900 6800
F 0 "C11" H 3800 6750 50  0000 R CNN
F 1 "1uF" H 3800 6850 50  0000 R CNN
F 2 "Capacitor_SMD:C_0603_1608Metric_Pad1.05x0.95mm_HandSolder" H 3938 6650 50  0001 C CNN
F 3 "~" H 3900 6800 50  0001 C CNN
	1    3900 6800
	-1   0    0    1   
$EndComp
Wire Wire Line
	3900 6650 4050 6650
Connection ~ 3900 6650
$Comp
L power:GND #PWR018
U 1 1 5E2EFBAC
P 3900 6950
F 0 "#PWR018" H 3900 6700 50  0001 C CNN
F 1 "GND" H 3905 6777 50  0001 C CNN
F 2 "" H 3900 6950 50  0001 C CNN
F 3 "" H 3900 6950 50  0001 C CNN
	1    3900 6950
	1    0    0    -1  
$EndComp
$Comp
L QAZ:SolderBridge SB2
U 1 1 5E2F5A6F
P 2600 6650
F 0 "SB2" H 2700 6750 50  0000 C CNN
F 1 "SolderBridge" H 2660 6600 50  0001 C CNN
F 2 "Resistor_SMD:R_0603_1608Metric_Pad1.05x0.95mm_HandSolder" H 2600 6750 50  0001 C CNN
F 3 "" H 2600 6750 50  0001 C CNN
	1    2600 6650
	1    0    0    -1  
$EndComp
Wire Wire Line
	2600 6650 2450 6650
Connection ~ 2450 6650
$Comp
L QAZ:SolderBridge SB3
U 1 1 5E2F6825
P 4050 6650
F 0 "SB3" H 4150 6750 50  0000 C CNN
F 1 "SolderBridge" H 4110 6600 50  0001 C CNN
F 2 "Resistor_SMD:R_0603_1608Metric_Pad1.05x0.95mm_HandSolder" H 4050 6750 50  0001 C CNN
F 3 "" H 4050 6750 50  0001 C CNN
	1    4050 6650
	1    0    0    -1  
$EndComp
Wire Wire Line
	4200 6650 4350 6650
Connection ~ 2300 6650
$Comp
L Device:C C9
U 1 1 5E32AA90
P 3100 1500
F 0 "C9" H 2985 1454 50  0000 R CNN
F 1 "100nF" H 2985 1545 50  0000 R CNN
F 2 "Capacitor_SMD:C_0603_1608Metric_Pad1.05x0.95mm_HandSolder" H 3138 1350 50  0001 C CNN
F 3 "~" H 3100 1500 50  0001 C CNN
	1    3100 1500
	-1   0    0    1   
$EndComp
$Comp
L Device:C C10
U 1 1 5E32AA97
P 3550 1500
F 0 "C10" H 3435 1454 50  0000 R CNN
F 1 "100nF" H 3435 1545 50  0000 R CNN
F 2 "Capacitor_SMD:C_0603_1608Metric_Pad1.05x0.95mm_HandSolder" H 3588 1350 50  0001 C CNN
F 3 "~" H 3550 1500 50  0001 C CNN
	1    3550 1500
	-1   0    0    1   
$EndComp
Wire Wire Line
	3550 1350 3100 1350
Connection ~ 3100 1350
Wire Wire Line
	3550 1650 3100 1650
Connection ~ 3100 1650
Wire Wire Line
	3700 5450 3250 5450
Text Label 2300 5550 0    50   ~ 0
SWCLK
Wire Wire Line
	2750 5450 2300 5450
Text Label 2300 5450 0    50   ~ 0
DBG_TX
$Comp
L Device:R_Small_US R1
U 1 1 5E39F44D
P 2300 5650
F 0 "R1" H 2450 5600 50  0000 R CNN
F 1 "10k" H 2500 5700 50  0000 R CNN
F 2 "Resistor_SMD:R_0603_1608Metric_Pad1.05x0.95mm_HandSolder" H 2300 5650 50  0001 C CNN
F 3 "~" H 2300 5650 50  0001 C CNN
	1    2300 5650
	-1   0    0    1   
$EndComp
$Comp
L Device:R_Small_US R6
U 1 1 5E39F59F
P 3700 5250
F 0 "R6" H 3850 5200 50  0000 R CNN
F 1 "10k" H 3900 5300 50  0000 R CNN
F 2 "Resistor_SMD:R_0603_1608Metric_Pad1.05x0.95mm_HandSolder" H 3700 5250 50  0001 C CNN
F 3 "~" H 3700 5250 50  0001 C CNN
	1    3700 5250
	-1   0    0    1   
$EndComp
Wire Wire Line
	3700 5350 3700 5450
$Comp
L power:+3.3V #PWR017
U 1 1 5E3A7322
P 3700 5150
F 0 "#PWR017" H 3700 5000 50  0001 C CNN
F 1 "+3.3V" H 3650 5300 50  0000 C CNN
F 2 "" H 3700 5150 50  0001 C CNN
F 3 "" H 3700 5150 50  0001 C CNN
	1    3700 5150
	1    0    0    -1  
$EndComp
$Comp
L power:GND #PWR08
U 1 1 5E3A737B
P 2300 5750
F 0 "#PWR08" H 2300 5500 50  0001 C CNN
F 1 "GND" H 2305 5577 50  0001 C CNN
F 2 "" H 2300 5750 50  0001 C CNN
F 3 "" H 2300 5750 50  0001 C CNN
	1    2300 5750
	1    0    0    -1  
$EndComp
Wire Wire Line
	3700 5550 3250 5550
Text Label 3700 5550 2    50   ~ 0
nRESET
$Comp
L Connector_Generic:Conn_02x02_Top_Bottom CN1
U 1 1 5E3BB09E
P 2950 5450
F 0 "CN1" H 3000 5550 50  0000 C CNN
F 1 "2x2 2.54mm" H 3000 5250 50  0000 C CNN
F 2 "Connector_PinHeader_2.54mm:PinHeader_2x02_P2.54mm_Vertical" H 2950 5450 50  0001 C CNN
F 3 "~" H 2950 5450 50  0001 C CNN
	1    2950 5450
	1    0    0    -1  
$EndComp
Connection ~ 2600 1650
Connection ~ 2600 1350
Wire Wire Line
	2600 1650 3100 1650
Wire Wire Line
	2600 1650 2150 1650
Wire Wire Line
	2600 1350 3100 1350
Wire Wire Line
	2600 1350 2150 1350
$Comp
L Device:C C5
U 1 1 5E5D8D7E
P 1950 6800
F 0 "C5" H 2150 6750 50  0000 R CNN
F 1 "4.7uF" H 2250 6850 50  0000 R CNN
F 2 "Capacitor_SMD:C_0805_2012Metric_Pad1.15x1.40mm_HandSolder" H 1988 6650 50  0001 C CNN
F 3 "~" H 1950 6800 50  0001 C CNN
	1    1950 6800
	-1   0    0    1   
$EndComp
$Comp
L power:GND #PWR07
U 1 1 5E5D8D85
P 1950 6950
F 0 "#PWR07" H 1950 6700 50  0001 C CNN
F 1 "GND" H 1955 6777 50  0001 C CNN
F 2 "" H 1950 6950 50  0001 C CNN
F 3 "" H 1950 6950 50  0001 C CNN
	1    1950 6950
	1    0    0    -1  
$EndComp
Wire Wire Line
	1800 6650 1950 6650
Connection ~ 1950 6650
Wire Wire Line
	1950 6650 2300 6650
Wire Notes Line
	1600 6300 4550 6300
Wire Notes Line
	4550 6300 4550 7200
Wire Notes Line
	4550 7200 1600 7200
Wire Notes Line
	1600 7200 1600 6300
Text Notes 1600 6300 0    50   ~ 0
USB 5V to 3.3V
Text Notes 2050 4900 0    50   ~ 0
SWD & Serial Debugger Header
Wire Notes Line
	4400 1100 4400 1900
Wire Notes Line
	1500 1900 1500 1100
Text Notes 1500 1100 0    50   ~ 0
Decoupling Capacitors
Wire Wire Line
	3600 2800 4050 2800
Text Label 4050 2800 2    50   ~ 0
BOOT0
Wire Notes Line
	3350 2300 4150 2300
Wire Notes Line
	4150 2300 4150 3200
Wire Notes Line
	4150 3200 3350 3200
Wire Notes Line
	3350 3200 3350 2300
Text Notes 3350 2300 0    50   ~ 0
BOOT0 Selection
Wire Wire Line
	2750 6650 2900 6650
Text Label 3700 5450 2    50   ~ 0
SWDIO
Wire Wire Line
	2300 5550 2750 5550
$Comp
L power:+5V #PWR024
U 1 1 5E2E39C5
P 8850 4800
F 0 "#PWR024" H 8850 4650 50  0001 C CNN
F 1 "+5V" H 8865 4973 50  0000 C CNN
F 2 "" H 8850 4800 50  0001 C CNN
F 3 "" H 8850 4800 50  0001 C CNN
	1    8850 4800
	1    0    0    -1  
$EndComp
Wire Wire Line
	8950 4800 8850 4800
Wire Wire Line
	9950 4800 10050 4800
$Comp
L power:+5V #PWR029
U 1 1 5EFAA796
P 10050 4800
F 0 "#PWR029" H 10050 4650 50  0001 C CNN
F 1 "+5V" H 10065 4973 50  0000 C CNN
F 2 "" H 10050 4800 50  0001 C CNN
F 3 "" H 10050 4800 50  0001 C CNN
	1    10050 4800
	1    0    0    -1  
$EndComp
Wire Wire Line
	8950 4900 8850 4900
Wire Wire Line
	8850 4900 8850 4800
Connection ~ 8850 4800
Wire Wire Line
	9950 4900 10050 4900
Wire Wire Line
	10050 4900 10050 4800
Connection ~ 10050 4800
Text Label 10400 5100 2    50   ~ 0
USB_D-
Text Label 10400 5000 2    50   ~ 0
USB_D+
Wire Wire Line
	9950 5100 10400 5100
Wire Wire Line
	9950 5000 10400 5000
Text Label 8500 5100 0    50   ~ 0
USB_D-
Text Label 8500 5000 0    50   ~ 0
USB_D+
Wire Wire Line
	8500 5100 8950 5100
Wire Wire Line
	8500 5000 8950 5000
NoConn ~ 9950 5300
NoConn ~ 8950 5300
Wire Wire Line
	8950 5400 8850 5400
Wire Wire Line
	8850 5400 8850 5500
Wire Wire Line
	8850 5500 8950 5500
Wire Wire Line
	8850 5500 8850 5750
Wire Wire Line
	8850 5750 9450 5750
Connection ~ 8850 5500
Wire Wire Line
	9950 5400 10050 5400
Wire Wire Line
	10050 5400 10050 5500
Wire Wire Line
	10050 5750 9450 5750
Connection ~ 9450 5750
Wire Wire Line
	9950 5500 10050 5500
Connection ~ 10050 5500
Wire Wire Line
	10050 5500 10050 5750
$Comp
L power:GND #PWR028
U 1 1 5F05EAEE
P 9450 5750
F 0 "#PWR028" H 9450 5500 50  0001 C CNN
F 1 "GND" H 9455 5577 50  0001 C CNN
F 2 "" H 9450 5750 50  0001 C CNN
F 3 "" H 9450 5750 50  0001 C CNN
	1    9450 5750
	1    0    0    -1  
$EndComp
Wire Wire Line
	8950 5200 8650 5200
$Comp
L Device:R_Small_US R13
U 1 1 5F086255
P 8650 5350
F 0 "R13" H 8900 5300 50  0000 R CNN
F 1 "5.1k" H 8900 5400 50  0000 R CNN
F 2 "Resistor_SMD:R_0603_1608Metric_Pad1.05x0.95mm_HandSolder" H 8650 5350 50  0001 C CNN
F 3 "~" H 8650 5350 50  0001 C CNN
	1    8650 5350
	-1   0    0    1   
$EndComp
Wire Wire Line
	8650 5250 8650 5200
$Comp
L power:GND #PWR023
U 1 1 5F0957F9
P 8650 5500
F 0 "#PWR023" H 8650 5250 50  0001 C CNN
F 1 "GND" H 8655 5327 50  0001 C CNN
F 2 "" H 8650 5500 50  0001 C CNN
F 3 "" H 8650 5500 50  0001 C CNN
	1    8650 5500
	1    0    0    -1  
$EndComp
Wire Wire Line
	8650 5450 8650 5500
Wire Wire Line
	9950 5200 10250 5200
$Comp
L Device:R_Small_US R17
U 1 1 5F0AF086
P 10250 5350
F 0 "R17" H 10500 5300 50  0000 R CNN
F 1 "5.1k" H 10500 5400 50  0000 R CNN
F 2 "Resistor_SMD:R_0603_1608Metric_Pad1.05x0.95mm_HandSolder" H 10250 5350 50  0001 C CNN
F 3 "~" H 10250 5350 50  0001 C CNN
	1    10250 5350
	1    0    0    1   
$EndComp
Wire Wire Line
	10250 5250 10250 5200
$Comp
L power:GND #PWR030
U 1 1 5F0AF08D
P 10250 5500
F 0 "#PWR030" H 10250 5250 50  0001 C CNN
F 1 "GND" H 10255 5327 50  0001 C CNN
F 2 "" H 10250 5500 50  0001 C CNN
F 3 "" H 10250 5500 50  0001 C CNN
	1    10250 5500
	-1   0    0    -1  
$EndComp
Wire Wire Line
	10250 5450 10250 5500
Text Notes 8350 4400 0    50   ~ 0
USB
Wire Notes Line
	8350 4400 8350 5950
Wire Notes Line
	10550 4400 10550 5950
Wire Notes Line
	8350 5950 10550 5950
Wire Notes Line
	8350 4400 10550 4400
Text Notes 4950 1100 0    50   ~ 0
MCU
Wire Notes Line
	4950 4800 4950 1100
Wire Notes Line
	7800 4800 4950 4800
Wire Notes Line
	7800 1100 7800 4800
Wire Notes Line
	4950 1100 7800 1100
Text Label 5300 2150 0    50   ~ 0
BOOT0
Wire Wire Line
	5300 2150 5750 2150
Text Label 5300 2050 0    50   ~ 0
OSC_OUT
Wire Wire Line
	5300 2050 5750 2050
Text Label 5300 1950 0    50   ~ 0
OSC_IN
Wire Wire Line
	5300 1950 5750 1950
Text Label 5300 1750 0    50   ~ 0
nRESET
Wire Wire Line
	5300 1750 5750 1750
Text Label 5300 2550 0    50   ~ 0
HB_LED
Wire Wire Line
	5750 2550 5300 2550
Text Label 7400 3550 2    50   ~ 0
CLKOUT
Wire Wire Line
	6950 3550 7400 3550
Text Label 7400 3650 2    50   ~ 0
DBG_TX
Wire Wire Line
	6950 3650 7400 3650
Text Label 7400 4150 2    50   ~ 0
SWCLK
Text Label 7400 4050 2    50   ~ 0
SWDIO
Wire Wire Line
	6950 4150 7400 4150
Wire Wire Line
	6950 4050 7400 4050
Wire Wire Line
	6950 3950 7400 3950
Wire Wire Line
	6950 3850 7400 3850
Text Label 7400 3950 2    50   ~ 0
USB_D+
Text Label 7400 3850 2    50   ~ 0
USB_D-
Wire Wire Line
	6300 4600 6350 4600
Connection ~ 6300 4600
$Comp
L power:GND #PWR021
U 1 1 5E2DC8F5
P 6300 4600
F 0 "#PWR021" H 6300 4350 50  0001 C CNN
F 1 "GND" H 6305 4427 50  0001 C CNN
F 2 "" H 6300 4600 50  0001 C CNN
F 3 "" H 6300 4600 50  0001 C CNN
	1    6300 4600
	1    0    0    -1  
$EndComp
Wire Wire Line
	6250 4600 6300 4600
Connection ~ 6250 4600
Wire Wire Line
	6250 4450 6250 4600
Wire Wire Line
	6350 4600 6450 4600
Connection ~ 6350 4600
Wire Wire Line
	6350 4450 6350 4600
Wire Wire Line
	6450 4600 6450 4450
Wire Wire Line
	6150 4600 6250 4600
Wire Wire Line
	6150 4450 6150 4600
$Comp
L power:+3.3V #PWR022
U 1 1 5E2DBDBA
P 6350 1400
F 0 "#PWR022" H 6350 1250 50  0001 C CNN
F 1 "+3.3V" H 6365 1573 50  0000 C CNN
F 2 "" H 6350 1400 50  0001 C CNN
F 3 "" H 6350 1400 50  0001 C CNN
	1    6350 1400
	1    0    0    -1  
$EndComp
Wire Wire Line
	6250 1400 6350 1400
Connection ~ 6250 1400
Wire Wire Line
	6250 1550 6250 1400
Wire Wire Line
	6350 1400 6450 1400
Connection ~ 6350 1400
Wire Wire Line
	6350 1550 6350 1400
Wire Wire Line
	6450 1400 6550 1400
Connection ~ 6450 1400
Wire Wire Line
	6450 1550 6450 1400
Wire Wire Line
	6550 1400 6550 1550
Wire Wire Line
	6150 1400 6250 1400
Wire Wire Line
	6150 1550 6150 1400
Wire Wire Line
	6000 5450 6100 5450
$Comp
L Device:R_Small_US R?
U 1 1 5F27B0E0
P 5900 5450
AR Path="/5EEB2DAF/5F27B0E0" Ref="R?"  Part="1" 
AR Path="/5F27B0E0" Ref="R8"  Part="1" 
F 0 "R8" V 5950 5400 50  0000 R CNN
F 1 "1k" V 5950 5600 50  0000 R CNN
F 2 "Resistor_SMD:R_0603_1608Metric_Pad1.05x0.95mm_HandSolder" H 5900 5450 50  0001 C CNN
F 3 "~" H 5900 5450 50  0001 C CNN
	1    5900 5450
	0    1    -1   0   
$EndComp
$Comp
L Device:R_Small_US R?
U 1 1 5F27B0E6
P 5900 5550
AR Path="/5EEB2DAF/5F27B0E6" Ref="R?"  Part="1" 
AR Path="/5F27B0E6" Ref="R9"  Part="1" 
F 0 "R9" V 5950 5500 50  0000 R CNN
F 1 "1k" V 5950 5700 50  0000 R CNN
F 2 "Resistor_SMD:R_0603_1608Metric_Pad1.05x0.95mm_HandSolder" H 5900 5550 50  0001 C CNN
F 3 "~" H 5900 5550 50  0001 C CNN
	1    5900 5550
	0    1    -1   0   
$EndComp
$Comp
L Device:R_Small_US R?
U 1 1 5F27B0EC
P 5900 5650
AR Path="/5EEB2DAF/5F27B0EC" Ref="R?"  Part="1" 
AR Path="/5F27B0EC" Ref="R10"  Part="1" 
F 0 "R10" V 5950 5600 50  0000 R CNN
F 1 "1k" V 5950 5800 50  0000 R CNN
F 2 "Resistor_SMD:R_0603_1608Metric_Pad1.05x0.95mm_HandSolder" H 5900 5650 50  0001 C CNN
F 3 "~" H 5900 5650 50  0001 C CNN
	1    5900 5650
	0    1    -1   0   
$EndComp
$Comp
L Device:R_Small_US R?
U 1 1 5F27B0F2
P 5900 5750
AR Path="/5EEB2DAF/5F27B0F2" Ref="R?"  Part="1" 
AR Path="/5F27B0F2" Ref="R11"  Part="1" 
F 0 "R11" V 5950 5700 50  0000 R CNN
F 1 "1k" V 5950 5900 50  0000 R CNN
F 2 "Resistor_SMD:R_0603_1608Metric_Pad1.05x0.95mm_HandSolder" H 5900 5750 50  0001 C CNN
F 3 "~" H 5900 5750 50  0001 C CNN
	1    5900 5750
	0    1    -1   0   
$EndComp
Wire Wire Line
	6000 5850 6100 5850
Wire Wire Line
	6000 5750 6100 5750
Wire Wire Line
	6000 5650 6100 5650
Wire Wire Line
	6100 5550 6000 5550
$Comp
L Device:R_Small_US R?
U 1 1 5F27B0FC
P 5900 5850
AR Path="/5EEB2DAF/5F27B0FC" Ref="R?"  Part="1" 
AR Path="/5F27B0FC" Ref="R12"  Part="1" 
F 0 "R12" V 5950 5800 50  0000 R CNN
F 1 "1k" V 5950 6000 50  0000 R CNN
F 2 "Resistor_SMD:R_0603_1608Metric_Pad1.05x0.95mm_HandSolder" H 5900 5850 50  0001 C CNN
F 3 "~" H 5900 5850 50  0001 C CNN
	1    5900 5850
	0    1    -1   0   
$EndComp
Text Label 7500 5650 2    50   ~ 0
COL02
Text Label 7500 5750 2    50   ~ 0
COL03
Wire Wire Line
	7500 5750 7050 5750
Wire Wire Line
	7500 5650 7050 5650
Wire Wire Line
	7500 5550 7050 5550
Wire Wire Line
	7500 5450 7050 5450
Text Label 5350 5850 0    50   ~ 0
ROW04
Text Label 5350 5750 0    50   ~ 0
ROW03
Text Label 5350 5650 0    50   ~ 0
ROW02
Text Label 5350 5550 0    50   ~ 0
ROW01
Text Label 5350 5450 0    50   ~ 0
ROW00
Wire Wire Line
	5800 5750 5350 5750
Wire Wire Line
	5800 5650 5350 5650
Wire Wire Line
	5800 5550 5350 5550
Wire Wire Line
	5800 5450 5350 5450
Text Label 7500 5550 2    50   ~ 0
COL01
Text Label 7500 5450 2    50   ~ 0
COL00
Text Notes 8450 1100 0    50   ~ 0
RGB LEDs + Controller\n
Wire Notes Line
	1300 3500 2700 3500
Wire Notes Line
	1300 4500 2700 4500
Wire Notes Line
	2700 3500 2700 4500
Wire Wire Line
	2150 3900 2600 3900
Text Notes 1300 3500 0    50   ~ 0
Reset Button
Wire Notes Line
	1300 3500 1300 4500
Text Label 2600 3900 2    50   ~ 0
nRESET
Wire Wire Line
	1850 3900 2000 3900
$Comp
L QAZ:SolderBridge SB1
U 1 1 5E2EFD55
P 2000 3900
F 0 "SB1" H 2100 4000 50  0000 C CNN
F 1 "SolderBridge" H 2060 3850 50  0001 C CNN
F 2 "Resistor_SMD:R_0603_1608Metric_Pad1.05x0.95mm_HandSolder" H 2000 4000 50  0001 C CNN
F 3 "" H 2000 4000 50  0001 C CNN
	1    2000 3900
	1    0    0    -1  
$EndComp
$Comp
L power:GND #PWR01
U 1 1 5E2DD449
P 1450 4150
F 0 "#PWR01" H 1450 3900 50  0001 C CNN
F 1 "GND" V 1455 4022 50  0001 R CNN
F 2 "" H 1450 4150 50  0001 C CNN
F 3 "" H 1450 4150 50  0001 C CNN
	1    1450 4150
	1    0    0    -1  
$EndComp
Wire Wire Line
	1850 4150 1850 3900
Wire Wire Line
	1800 4150 1850 4150
Wire Wire Line
	1450 4150 1500 4150
Connection ~ 1450 4150
Wire Wire Line
	1450 3900 1450 4150
$Comp
L Device:C C2
U 1 1 5E2DCB8C
P 1650 4150
F 0 "C2" V 1500 4150 50  0000 C CNN
F 1 "100nF" V 1400 4150 50  0000 C CNN
F 2 "Capacitor_SMD:C_0603_1608Metric_Pad1.05x0.95mm_HandSolder" H 1688 4000 50  0001 C CNN
F 3 "~" H 1650 4150 50  0001 C CNN
	1    1650 4150
	0    -1   -1   0   
$EndComp
Connection ~ 1850 3900
$Comp
L Switch:SW_Push SW1
U 1 1 5E2DC9F1
P 1650 3900
F 0 "SW1" H 1650 4185 50  0000 C CNN
F 1 "KMR211GLFS " H 1650 4094 50  0000 C CNN
F 2 "Button_Switch_SMD:SW_Push_1P1T_NO_CK_KMR2" H 1650 4100 50  0001 C CNN
F 3 "~" H 1650 4100 50  0001 C CNN
	1    1650 3900
	1    0    0    -1  
$EndComp
Text Label 7400 3350 2    50   ~ 0
ROW03
Text Label 7400 3250 2    50   ~ 0
ROW02
Wire Wire Line
	6950 3350 7400 3350
Wire Wire Line
	6950 3250 7400 3250
NoConn ~ 6950 2750
NoConn ~ 6950 2950
NoConn ~ 6950 2850
NoConn ~ 6950 4250
NoConn ~ 5750 4050
NoConn ~ 5750 3850
NoConn ~ 5750 3750
NoConn ~ 5750 2450
NoConn ~ 5750 2350
Text Notes 1300 2200 0    50   ~ 0
8.0000MHz Oscillator
Wire Notes Line
	1300 3200 1300 2200
Wire Notes Line
	2950 3200 1300 3200
Wire Notes Line
	2950 2200 2950 3200
Wire Notes Line
	1300 2200 2950 2200
Text Label 2800 2850 2    50   ~ 0
OSC_OUT
Text Label 2800 2550 2    50   ~ 0
OSC_IN
Connection ~ 2200 2850
Connection ~ 2200 2550
Wire Wire Line
	1600 2850 1750 2850
Wire Wire Line
	1750 2550 1600 2550
$Comp
L power:GND #PWR02
U 1 1 5E2DA51B
P 1600 2550
F 0 "#PWR02" H 1600 2300 50  0001 C CNN
F 1 "GND" V 1605 2422 50  0001 R CNN
F 2 "" H 1600 2550 50  0001 C CNN
F 3 "" H 1600 2550 50  0001 C CNN
	1    1600 2550
	0    1    1    0   
$EndComp
$Comp
L power:GND #PWR03
U 1 1 5E2DA4FD
P 1600 2850
F 0 "#PWR03" H 1600 2600 50  0001 C CNN
F 1 "GND" V 1605 2722 50  0001 R CNN
F 2 "" H 1600 2850 50  0001 C CNN
F 3 "" H 1600 2850 50  0001 C CNN
	1    1600 2850
	0    1    1    0   
$EndComp
Wire Wire Line
	2200 2850 2050 2850
Wire Wire Line
	2050 2550 2200 2550
$Comp
L Device:C C3
U 1 1 5E2D7619
P 1900 2550
F 0 "C3" V 1648 2550 50  0000 C CNN
F 1 "16pF" V 1739 2550 50  0000 C CNN
F 2 "Capacitor_SMD:C_0603_1608Metric_Pad1.05x0.95mm_HandSolder" H 1938 2400 50  0001 C CNN
F 3 "~" H 1900 2550 50  0001 C CNN
	1    1900 2550
	0    1    1    0   
$EndComp
$Comp
L Device:C C4
U 1 1 5E2D7571
P 1900 2850
F 0 "C4" V 2050 2850 50  0000 C CNN
F 1 "16pF" V 2150 2850 50  0000 C CNN
F 2 "Capacitor_SMD:C_0603_1608Metric_Pad1.05x0.95mm_HandSolder" H 1938 2700 50  0001 C CNN
F 3 "~" H 1900 2850 50  0001 C CNN
	1    1900 2850
	0    1    1    0   
$EndComp
$Comp
L Device:Crystal Y1
U 1 1 5E2D72FB
P 2200 2700
F 0 "Y1" V 2200 2450 50  0000 L CNN
F 1 "8.0000MHz" V 2200 2850 50  0000 L CNN
F 2 "QAZ_lib:Crystal_SMD_Abracon_ABM7-2Pin_6.0x3.5mm_HS" H 2200 2700 50  0001 C CNN
F 3 "~" H 2200 2700 50  0001 C CNN
	1    2200 2700
	0    1    1    0   
$EndComp
Wire Notes Line
	4400 4450 2850 4450
Wire Notes Line
	2850 3500 4400 3500
$Comp
L Device:R_Small_US R2
U 1 1 5E2F9708
P 3250 3900
F 0 "R2" H 3400 3850 50  0000 R CNN
F 1 "1.69k" H 3500 3950 50  0000 R CNN
F 2 "Resistor_SMD:R_0603_1608Metric_Pad1.05x0.95mm_HandSolder" H 3250 3900 50  0001 C CNN
F 3 "~" H 3250 3900 50  0001 C CNN
	1    3250 3900
	-1   0    0    1   
$EndComp
$Comp
L Device:LED_ALT LED1
U 1 1 5E2F9BE9
P 3250 4150
F 0 "LED1" V 3300 4450 50  0000 R CNN
F 1 "BLUE" V 3200 4450 50  0000 R CNN
F 2 "Resistor_SMD:R_0603_1608Metric_Pad1.05x0.95mm_HandSolder" H 3250 4150 50  0001 C CNN
F 3 "~" H 3250 4150 50  0001 C CNN
	1    3250 4150
	0    -1   -1   0   
$EndComp
$Comp
L power:GND #PWR011
U 1 1 5E2FB96C
P 3250 4300
F 0 "#PWR011" H 3250 4050 50  0001 C CNN
F 1 "GND" H 3255 4127 50  0001 C CNN
F 2 "" H 3250 4300 50  0001 C CNN
F 3 "" H 3250 4300 50  0001 C CNN
	1    3250 4300
	1    0    0    -1  
$EndComp
$Comp
L Device:R_Small_US R5
U 1 1 5E2FCBBB
P 3650 3900
F 0 "R5" H 3800 3850 50  0000 R CNN
F 1 "1.3k" H 3850 3950 50  0000 R CNN
F 2 "Resistor_SMD:R_0603_1608Metric_Pad1.05x0.95mm_HandSolder" H 3650 3900 50  0001 C CNN
F 3 "~" H 3650 3900 50  0001 C CNN
	1    3650 3900
	-1   0    0    1   
$EndComp
$Comp
L Device:LED_ALT LED2
U 1 1 5E2FCC3B
P 3650 4150
F 0 "LED2" V 3700 4450 50  0000 R CNN
F 1 "GREEN" V 3600 4450 50  0000 R CNN
F 2 "Resistor_SMD:R_0603_1608Metric_Pad1.05x0.95mm_HandSolder" H 3650 4150 50  0001 C CNN
F 3 "~" H 3650 4150 50  0001 C CNN
	1    3650 4150
	0    -1   -1   0   
$EndComp
$Comp
L power:GND #PWR016
U 1 1 5E2FCCAD
P 3650 4300
F 0 "#PWR016" H 3650 4050 50  0001 C CNN
F 1 "GND" H 3655 4127 50  0001 C CNN
F 2 "" H 3650 4300 50  0001 C CNN
F 3 "" H 3650 4300 50  0001 C CNN
	1    3650 4300
	1    0    0    -1  
$EndComp
Wire Wire Line
	3250 3800 3250 3750
$Comp
L Device:R_Small_US R7
U 1 1 5E30095A
P 4050 3900
F 0 "R7" H 4200 3850 50  0000 R CNN
F 1 "1.3k" H 4250 3950 50  0000 R CNN
F 2 "Resistor_SMD:R_0603_1608Metric_Pad1.05x0.95mm_HandSolder" H 4050 3900 50  0001 C CNN
F 3 "~" H 4050 3900 50  0001 C CNN
	1    4050 3900
	-1   0    0    1   
$EndComp
$Comp
L Device:LED_ALT LED3
U 1 1 5E300961
P 4050 4150
F 0 "LED3" V 4100 4450 50  0000 R CNN
F 1 "RED" V 4000 4450 50  0000 R CNN
F 2 "Resistor_SMD:R_0603_1608Metric_Pad1.05x0.95mm_HandSolder" H 4050 4150 50  0001 C CNN
F 3 "~" H 4050 4150 50  0001 C CNN
	1    4050 4150
	0    -1   -1   0   
$EndComp
$Comp
L power:GND #PWR019
U 1 1 5E300968
P 4050 4300
F 0 "#PWR019" H 4050 4050 50  0001 C CNN
F 1 "GND" H 4055 4127 50  0001 C CNN
F 2 "" H 4050 4300 50  0001 C CNN
F 3 "" H 4050 4300 50  0001 C CNN
	1    4050 4300
	1    0    0    -1  
$EndComp
Wire Wire Line
	4050 3800 4050 3750
Text Label 4050 3750 0    50   ~ 0
HB_LED
Wire Wire Line
	3650 3800 3650 3750
$Comp
L power:+3.3V #PWR015
U 1 1 5E4D45F7
P 3650 3750
F 0 "#PWR015" H 3650 3600 50  0001 C CNN
F 1 "+3.3V" H 3665 3923 50  0000 C CNN
F 2 "" H 3650 3750 50  0001 C CNN
F 3 "" H 3650 3750 50  0001 C CNN
	1    3650 3750
	1    0    0    -1  
$EndComp
$Comp
L power:+5V #PWR010
U 1 1 5E4D469B
P 3250 3750
F 0 "#PWR010" H 3250 3600 50  0001 C CNN
F 1 "+5V" H 3265 3923 50  0000 C CNN
F 2 "" H 3250 3750 50  0001 C CNN
F 3 "" H 3250 3750 50  0001 C CNN
	1    3250 3750
	1    0    0    -1  
$EndComp
Wire Notes Line
	2850 4450 2850 3500
Wire Notes Line
	4400 3500 4400 4450
Text Notes 2850 3500 0    50   ~ 0
Indicator LEDs
$Sheet
S 6100 5350 950  600 
U 5F3D13D6
F0 "QAZ Numpad Keys" 50
F1 "QAZ_numpad_keys.sch" 50
F2 "ROW03" O L 6100 5750 50 
F3 "ROW00" O L 6100 5450 50 
F4 "ROW01" O L 6100 5550 50 
F5 "ROW02" O L 6100 5650 50 
F6 "COL03" I R 7050 5750 50 
F7 "COL00" I R 7050 5450 50 
F8 "COL01" I R 7050 5550 50 
F9 "COL02" I R 7050 5650 50 
F10 "ROW04" O L 6100 5850 50 
$EndSheet
Text Label 7400 3150 2    50   ~ 0
ROW04
Wire Wire Line
	6950 3150 7400 3150
$Comp
L Driver_LED:TLC5973 U3
U 1 1 5F45CAAC
P 9350 3100
F 0 "U3" H 9150 3450 50  0000 C CNN
F 1 "TLC5973" H 9550 3450 50  0000 C CNN
F 2 "Package_SO:SOIC-8_3.9x4.9mm_P1.27mm" H 9800 3450 50  0001 L CNN
F 3 "http://www.ti.com/lit/ds/symlink/tlc5973.pdf" H 9050 3450 50  0001 C CNN
	1    9350 3100
	1    0    0    -1  
$EndComp
NoConn ~ 8950 3100
$Comp
L power:GND #PWR027
U 1 1 5EED4FAE
P 9350 3500
F 0 "#PWR027" H 9350 3250 50  0001 C CNN
F 1 "GND" H 9355 3327 50  0000 C CNN
F 2 "" H 9350 3500 50  0001 C CNN
F 3 "" H 9350 3500 50  0001 C CNN
	1    9350 3500
	1    0    0    -1  
$EndComp
Wire Wire Line
	9150 1450 9150 1350
Wire Wire Line
	9150 1350 9350 1350
Wire Wire Line
	9350 1350 9350 1450
Wire Wire Line
	9350 1350 9550 1350
Wire Wire Line
	9550 1350 9550 1450
Connection ~ 9350 1350
$Comp
L power:+5V #PWR025
U 1 1 5EF41996
P 9350 1350
F 0 "#PWR025" H 9350 1200 50  0001 C CNN
F 1 "+5V" H 9365 1523 50  0000 C CNN
F 2 "" H 9350 1350 50  0001 C CNN
F 3 "" H 9350 1350 50  0001 C CNN
	1    9350 1350
	1    0    0    -1  
$EndComp
Wire Wire Line
	9550 1950 9550 1850
Wire Wire Line
	9350 1950 9350 1850
Wire Wire Line
	9150 1850 9150 1950
$Comp
L QAZ:ASMB-TTB0-0A3A2 LED4
U 1 1 5EFA62F1
P 9350 1650
F 0 "LED4" V 9396 1320 50  0000 R CNN
F 1 "ASMB-TTB0-0A3A2" V 9305 1320 50  0000 R CNN
F 2 "LED_SMD:LED_RGB_PLCC-6" H 9050 1900 50  0001 C CNN
F 3 "" H 9050 1900 50  0001 C CNN
	1    9350 1650
	0    -1   -1   0   
$EndComp
$Comp
L QAZ:USB2.0_TYPE_C CN2
U 1 1 5EFB7A5A
P 9100 5600
F 0 "CN2" H 9450 6665 50  0000 C CNN
F 1 "USB2.0_TYPE_C" H 9450 6574 50  0000 C CNN
F 2 "QAZ_lib:USB_C_GCT_USB4085" H 9550 6750 50  0001 C CNN
F 3 "" H 8550 5950 50  0001 C CNN
	1    9100 5600
	1    0    0    -1  
$EndComp
$Comp
L power:+3.3V #PWR026
U 1 1 5EFD2584
P 9350 2700
F 0 "#PWR026" H 9350 2550 50  0001 C CNN
F 1 "+3.3V" H 9365 2873 50  0000 C CNN
F 2 "" H 9350 2700 50  0001 C CNN
F 3 "" H 9350 2700 50  0001 C CNN
	1    9350 2700
	1    0    0    -1  
$EndComp
Wire Wire Line
	9150 2150 9150 2450
Wire Wire Line
	9350 2150 9350 2350
Wire Wire Line
	9550 2150 9550 2250
Wire Wire Line
	9750 3000 9850 3000
Wire Wire Line
	9850 3000 9850 2450
Wire Wire Line
	9150 2450 9850 2450
Wire Wire Line
	9950 2350 9950 3100
Wire Wire Line
	9950 3100 9750 3100
Wire Wire Line
	9350 2350 9950 2350
Wire Wire Line
	9750 3200 10050 3200
Wire Wire Line
	10050 3200 10050 2250
Wire Wire Line
	9550 2250 10050 2250
$Comp
L Device:R_Small_US R16
U 1 1 5FBC0442
P 9550 2050
F 0 "R16" H 9700 2000 50  0000 R CNN
F 1 "90.9" H 9750 2150 50  0000 R CNN
F 2 "Resistor_SMD:R_0603_1608Metric_Pad1.05x0.95mm_HandSolder" H 9550 2050 50  0001 C CNN
F 3 "~" H 9550 2050 50  0001 C CNN
	1    9550 2050
	-1   0    0    1   
$EndComp
$Comp
L Device:C C12
U 1 1 5F056C2C
P 4000 1500
F 0 "C12" H 3885 1454 50  0000 R CNN
F 1 "100nF" H 3885 1545 50  0000 R CNN
F 2 "Capacitor_SMD:C_0603_1608Metric_Pad1.05x0.95mm_HandSolder" H 4038 1350 50  0001 C CNN
F 3 "~" H 4000 1500 50  0001 C CNN
	1    4000 1500
	-1   0    0    1   
$EndComp
Wire Wire Line
	3550 1350 4000 1350
Connection ~ 3550 1350
Wire Wire Line
	4000 1650 3550 1650
Connection ~ 3550 1650
Wire Notes Line
	4400 1900 1500 1900
Wire Notes Line
	1500 1100 4400 1100
NoConn ~ 8950 3200
Text Label 5300 4250 0    50   ~ 0
SMOSI
Wire Wire Line
	5750 4250 5300 4250
Text Label 8500 3000 0    50   ~ 0
SMOSI
Wire Wire Line
	8950 3000 8500 3000
Wire Notes Line
	10450 3750 10450 1100
Wire Notes Line
	10450 1100 8450 1100
Wire Notes Line
	8450 1100 8450 3750
Wire Notes Line
	8450 3750 10450 3750
$Comp
L Device:R_Small_US R15
U 1 1 5FBC043C
P 9350 2050
F 0 "R15" H 9500 2000 50  0000 R CNN
F 1 "90.9" H 9550 2150 50  0000 R CNN
F 2 "Resistor_SMD:R_0603_1608Metric_Pad1.05x0.95mm_HandSolder" H 9350 2050 50  0001 C CNN
F 3 "~" H 9350 2050 50  0001 C CNN
	1    9350 2050
	-1   0    0    1   
$EndComp
$Comp
L Device:R_Small_US R14
U 1 1 5FBC0436
P 9150 2050
F 0 "R14" H 9300 2000 50  0000 R CNN
F 1 "130" H 9350 2150 50  0000 R CNN
F 2 "Resistor_SMD:R_0603_1608Metric_Pad1.05x0.95mm_HandSolder" H 9150 2050 50  0001 C CNN
F 3 "~" H 9150 2050 50  0001 C CNN
	1    9150 2050
	-1   0    0    1   
$EndComp
Text Notes 2500 1300 0    50   ~ 0
U2: C1, C6, C8, C9, C10\nU3: C12
$Comp
L QAZ:TestPoint TP1
U 1 1 5EF4F7AD
P 2150 1650
F 0 "TP1" H 2200 1800 50  0000 R CNN
F 1 "TestPoint" H 2150 1500 50  0001 C CNN
F 2 "QAZ_lib:TestPoint_SurfaceMount_1206_HS" H 2150 1650 50  0001 C CNN
F 3 "" H 2150 1650 50  0001 C CNN
	1    2150 1650
	-1   0    0    1   
$EndComp
$Comp
L QAZ:TestPoint TP3
U 1 1 5EF5004F
P 2600 1650
F 0 "TP3" H 2650 1800 50  0000 R CNN
F 1 "TestPoint" H 2600 1500 50  0001 C CNN
F 2 "QAZ_lib:TestPoint_SurfaceMount_1206_HS" H 2600 1650 50  0001 C CNN
F 3 "" H 2600 1650 50  0001 C CNN
	1    2600 1650
	-1   0    0    1   
$EndComp
$Comp
L QAZ:TestPoint TP4
U 1 1 5EF503DF
P 3100 1650
F 0 "TP4" H 3150 1800 50  0000 R CNN
F 1 "TestPoint" H 3100 1500 50  0001 C CNN
F 2 "QAZ_lib:TestPoint_SurfaceMount_1206_HS" H 3100 1650 50  0001 C CNN
F 3 "" H 3100 1650 50  0001 C CNN
	1    3100 1650
	-1   0    0    1   
$EndComp
$Comp
L QAZ:TestPoint TP7
U 1 1 5EF55024
P 7400 3550
F 0 "TP7" V 7400 3678 50  0000 L CNN
F 1 "TestPoint" H 7400 3400 50  0001 C CNN
F 2 "QAZ_lib:TestPoint_SurfaceMount_1206_HS" H 7400 3550 50  0001 C CNN
F 3 "" H 7400 3550 50  0001 C CNN
	1    7400 3550
	0    1    1    0   
$EndComp
$Comp
L QAZ:TestPoint TP6
U 1 1 5EF568F9
P 5300 4250
F 0 "TP6" V 5300 4450 50  0000 C CNN
F 1 "TestPoint" H 5300 4100 50  0001 C CNN
F 2 "QAZ_lib:TestPoint_SurfaceMount_1206_HS" H 5300 4250 50  0001 C CNN
F 3 "" H 5300 4250 50  0001 C CNN
	1    5300 4250
	0    -1   -1   0   
$EndComp
Wire Wire Line
	3650 6650 3750 6650
$Comp
L QAZ:TestPoint TP5
U 1 1 5EF5CF79
P 3750 6650
F 0 "TP5" H 3700 6800 50  0000 L CNN
F 1 "TestPoint" H 3750 6500 50  0001 C CNN
F 2 "QAZ_lib:TestPoint_SurfaceMount_1206_HS" H 3750 6650 50  0001 C CNN
F 3 "" H 3750 6650 50  0001 C CNN
	1    3750 6650
	1    0    0    -1  
$EndComp
Connection ~ 3750 6650
Wire Wire Line
	3750 6650 3900 6650
$Comp
L QAZ:TestPoint TP2
U 1 1 5EF6B445
P 2450 6650
F 0 "TP2" H 2500 6800 50  0000 R CNN
F 1 "TestPoint" H 2450 6500 50  0001 C CNN
F 2 "QAZ_lib:TestPoint_SurfaceMount_1206_HS" H 2450 6650 50  0001 C CNN
F 3 "" H 2450 6650 50  0001 C CNN
	1    2450 6650
	1    0    0    -1  
$EndComp
Wire Wire Line
	5800 5850 5350 5850
Wire Wire Line
	3050 6750 2900 6750
Wire Wire Line
	2900 6750 2900 6650
Connection ~ 2900 6650
Wire Wire Line
	2900 6650 3050 6650
Wire Wire Line
	2200 2550 2800 2550
Wire Wire Line
	2200 2850 2800 2850
$Comp
L MCU_ST_STM32F0:STM32F042C6Tx U2
U 1 1 5E2D729B
P 6350 2950
F 0 "U2" H 5900 1500 50  0000 C CNN
F 1 "STM32F042C6Tx" H 6800 1500 50  0000 C CNN
F 2 "Package_QFP:LQFP-48_7x7mm_P0.5mm" H 5850 1550 50  0001 R CNN
F 3 "http://www.st.com/st-web-ui/static/active/en/resource/technical/document/datasheet/DM00105814.pdf" H 6350 2950 50  0001 C CNN
	1    6350 2950
	1    0    0    -1  
$EndComp
Wire Notes Line
	2050 5900 3800 5900
Wire Notes Line
	3800 5900 3800 4900
Wire Notes Line
	3800 4900 2050 4900
Wire Notes Line
	2050 4900 2050 5900
NoConn ~ 6950 3750
Wire Wire Line
	5750 3650 5300 3650
Text Label 5300 3550 0    50   ~ 0
ROW00
NoConn ~ 5750 3150
Wire Wire Line
	5750 2750 5300 2750
Wire Wire Line
	5750 4150 5300 4150
Wire Wire Line
	5750 3950 5300 3950
Wire Wire Line
	5750 3550 5300 3550
Text Label 5300 2750 0    50   ~ 0
COL00
Text Label 5300 3950 0    50   ~ 0
COL02
Text Label 5300 4150 0    50   ~ 0
COL01
Text Label 5300 3650 0    50   ~ 0
COL03
Wire Wire Line
	6950 3450 7400 3450
Text Label 7400 3450 2    50   ~ 0
ROW01
NoConn ~ 5750 3050
NoConn ~ 5750 3450
NoConn ~ 5750 3350
NoConn ~ 5750 2950
NoConn ~ 5750 2850
NoConn ~ 6950 3050
NoConn ~ 5750 3250
$EndSCHEMATC
